random/simulation/qsim/random.msim.vcd
$comment
	File created using the following command:
		vcd file random.msim.vcd -direction
$end
$date
	Thu Apr 12 18:58:46 2018
$end
$version
	ModelSim Version 10.4d
$end
$timescale
	1ps
$end

$scope module random8_vlg_vec_tst $end
$var reg 1 ! clock $end
$var reg 8 " seed0 [7:0] $end
$var reg 8 # seed1 [7:0] $end
$var reg 8 $ seed2 [7:0] $end
$var reg 8 % seed3 [7:0] $end
$var reg 8 & seed4 [7:0] $end
$var reg 8 ' seed5 [7:0] $end
$var reg 8 ( seed6 [7:0] $end
$var reg 8 ) seed7 [7:0] $end
$var wire 1 * data [7] $end
$var wire 1 + data [6] $end
$var wire 1 , data [5] $end
$var wire 1 - data [4] $end
$var wire 1 . data [3] $end
$var wire 1 / data [2] $end
$var wire 1 0 data [1] $end
$var wire 1 1 data [0] $end

$scope module i1 $end
$var wire 1 2 gnd $end
$var wire 1 3 vcc $end
$var wire 1 4 unknown $end
$var tri1 1 5 devclrn $end
$var tri1 1 6 devpor $end
$var tri1 1 7 devoe $end
$var wire 1 8 data[0]~output_o $end
$var wire 1 9 data[1]~output_o $end
$var wire 1 : data[2]~output_o $end
$var wire 1 ; data[3]~output_o $end
$var wire 1 < data[4]~output_o $end
$var wire 1 = data[5]~output_o $end
$var wire 1 > data[6]~output_o $end
$var wire 1 ? data[7]~output_o $end
$var wire 1 @ clock~input_o $end
$var wire 1 A clock~inputclkctrl_outclk $end
$var wire 1 B seed0[4]~input_o $end
$var wire 1 C seed0[3]~input_o $end
$var wire 1 D seed0[2]~input_o $end
$var wire 1 E seed0[1]~input_o $end
$var wire 1 F seed0[0]~input_o $end
$var wire 1 G rc1|feedback~combout $end
$var wire 1 H rc1|Add0~8 $end
$var wire 1 I rc1|Add0~11 $end
$var wire 1 J rc1|Add0~13 $end
$var wire 1 K rc1|Add0~15 $end
$var wire 1 L rc1|Add0~16_combout $end
$var wire 1 M rc1|Add0~29_combout $end
$var wire 1 N seed0[5]~input_o $end
$var wire 1 O rc1|Add0~17 $end
$var wire 1 P rc1|Add0~18_combout $end
$var wire 1 Q rc1|Add0~27_combout $end
$var wire 1 R seed0[6]~input_o $end
$var wire 1 S rc1|Add0~19 $end
$var wire 1 T rc1|Add0~20_combout $end
$var wire 1 U rc1|Add0~30_combout $end
$var wire 1 V seed0[7]~input_o $end
$var wire 1 W rc1|Add0~21 $end
$var wire 1 X rc1|Add0~22_combout $end
$var wire 1 Y rc1|Add0~24_combout $end
$var wire 1 Z rc1|Add0~5_combout $end
$var wire 1 [ rc1|Add0~4_combout $end
$var wire 1 \ rc1|Add0~6_combout $end
$var wire 1 ] rc1|Add0~10_combout $end
$var wire 1 ^ rc1|Add0~25_combout $end
$var wire 1 _ rc1|Add0~12_combout $end
$var wire 1 ` rc1|Add0~28_combout $end
$var wire 1 a rc1|Add0~14_combout $end
$var wire 1 b rc1|Add0~26_combout $end
$var wire 1 c rc1|feedback_seed~combout $end
$var wire 1 d rc1|Add0~7_combout $end
$var wire 1 e rc1|Add0~9_combout $end
$var wire 1 f seed1[4]~input_o $end
$var wire 1 g seed1[1]~input_o $end
$var wire 1 h rc2|feedback~combout $end
$var wire 1 i seed1[0]~input_o $end
$var wire 1 j rc2|Add0~8 $end
$var wire 1 k rc2|Add0~10_combout $end
$var wire 1 l rc2|Add0~25_combout $end
$var wire 1 m seed1[2]~input_o $end
$var wire 1 n rc2|Add0~11 $end
$var wire 1 o rc2|Add0~12_combout $end
$var wire 1 p rc2|Add0~28_combout $end
$var wire 1 q seed1[3]~input_o $end
$var wire 1 r rc2|Add0~13 $end
$var wire 1 s rc2|Add0~15 $end
$var wire 1 t rc2|Add0~16_combout $end
$var wire 1 u rc2|Add0~29_combout $end
$var wire 1 v seed1[5]~input_o $end
$var wire 1 w rc2|Add0~17 $end
$var wire 1 x rc2|Add0~18_combout $end
$var wire 1 y rc2|Add0~27_combout $end
$var wire 1 z rc2|feedback_seed~combout $end
$var wire 1 { rc2|Add0~14_combout $end
$var wire 1 | rc2|Add0~26_combout $end
$var wire 1 } seed1[6]~input_o $end
$var wire 1 ~ rc2|Add0~19 $end
$var wire 1 !! rc2|Add0~20_combout $end
$var wire 1 "! rc2|Add0~30_combout $end
$var wire 1 #! seed1[7]~input_o $end
$var wire 1 $! rc2|Add0~21 $end
$var wire 1 %! rc2|Add0~22_combout $end
$var wire 1 &! rc2|Add0~24_combout $end
$var wire 1 '! rc2|Add0~5_combout $end
$var wire 1 (! rc2|Add0~4_combout $end
$var wire 1 )! rc2|Add0~6_combout $end
$var wire 1 *! rc2|Add0~7_combout $end
$var wire 1 +! rc2|Add0~9_combout $end
$var wire 1 ,! seed2[2]~input_o $end
$var wire 1 -! seed2[1]~input_o $end
$var wire 1 .! seed2[0]~input_o $end
$var wire 1 /! rc3|Add0~8 $end
$var wire 1 0! rc3|Add0~11 $end
$var wire 1 1! rc3|Add0~12_combout $end
$var wire 1 2! rc3|Add0~28_combout $end
$var wire 1 3! seed2[3]~input_o $end
$var wire 1 4! rc3|Add0~13 $end
$var wire 1 5! rc3|Add0~14_combout $end
$var wire 1 6! rc3|Add0~26_combout $end
$var wire 1 7! seed2[4]~input_o $end
$var wire 1 8! rc3|Add0~15 $end
$var wire 1 9! rc3|Add0~16_combout $end
$var wire 1 :! rc3|Add0~29_combout $end
$var wire 1 ;! seed2[5]~input_o $end
$var wire 1 <! rc3|Add0~17 $end
$var wire 1 =! rc3|Add0~18_combout $end
$var wire 1 >! rc3|Add0~27_combout $end
$var wire 1 ?! rc3|feedback_seed~combout $end
$var wire 1 @! rc3|Add0~10_combout $end
$var wire 1 A! rc3|Add0~25_combout $end
$var wire 1 B! rc3|Add0~4_combout $end
$var wire 1 C! rc3|Add0~5_combout $end
$var wire 1 D! seed2[6]~input_o $end
$var wire 1 E! rc3|Add0~19 $end
$var wire 1 F! rc3|Add0~20_combout $end
$var wire 1 G! rc3|Add0~30_combout $end
$var wire 1 H! rc3|Add0~6_combout $end
$var wire 1 I! seed2[7]~input_o $end
$var wire 1 J! rc3|Add0~21 $end
$var wire 1 K! rc3|Add0~22_combout $end
$var wire 1 L! rc3|Add0~24_combout $end
$var wire 1 M! rc3|feedback~combout $end
$var wire 1 N! rc3|Add0~7_combout $end
$var wire 1 O! rc3|Add0~9_combout $end
$var wire 1 P! seed3[1]~input_o $end
$var wire 1 Q! seed3[0]~input_o $end
$var wire 1 R! rc4|Add0~8 $end
$var wire 1 S! rc4|Add0~10_combout $end
$var wire 1 T! seed3[2]~input_o $end
$var wire 1 U! rc4|Add0~11 $end
$var wire 1 V! rc4|Add0~12_combout $end
$var wire 1 W! rc4|Add0~28_combout $end
$var wire 1 X! seed3[3]~input_o $end
$var wire 1 Y! rc4|Add0~13 $end
$var wire 1 Z! rc4|Add0~14_combout $end
$var wire 1 [! rc4|Add0~26_combout $end
$var wire 1 \! seed3[6]~input_o $end
$var wire 1 ]! seed3[5]~input_o $end
$var wire 1 ^! seed3[4]~input_o $end
$var wire 1 _! rc4|Add0~15 $end
$var wire 1 `! rc4|Add0~16_combout $end
$var wire 1 a! rc4|Add0~29_combout $end
$var wire 1 b! rc4|Add0~17 $end
$var wire 1 c! rc4|Add0~19 $end
$var wire 1 d! rc4|Add0~20_combout $end
$var wire 1 e! rc4|Add0~30_combout $end
$var wire 1 f! seed3[7]~input_o $end
$var wire 1 g! rc4|Add0~21 $end
$var wire 1 h! rc4|Add0~22_combout $end
$var wire 1 i! rc4|Add0~24_combout $end
$var wire 1 j! rc4|Add0~5_combout $end
$var wire 1 k! rc4|Add0~4_combout $end
$var wire 1 l! rc4|Add0~6_combout $end
$var wire 1 m! rc4|Add0~18_combout $end
$var wire 1 n! rc4|Add0~27_combout $end
$var wire 1 o! rc4|feedback_seed~combout $end
$var wire 1 p! rc4|Add0~25_combout $end
$var wire 1 q! rc4|feedback~combout $end
$var wire 1 r! rc4|Add0~7_combout $end
$var wire 1 s! rc4|Add0~9_combout $end
$var wire 1 t! seed4[1]~input_o $end
$var wire 1 u! seed4[0]~input_o $end
$var wire 1 v! rc5|Add0~8 $end
$var wire 1 w! rc5|Add0~10_combout $end
$var wire 1 x! rc5|Add0~25_combout $end
$var wire 1 y! seed4[2]~input_o $end
$var wire 1 z! rc5|Add0~11 $end
$var wire 1 {! rc5|Add0~12_combout $end
$var wire 1 |! rc5|Add0~28_combout $end
$var wire 1 }! seed4[3]~input_o $end
$var wire 1 ~! rc5|Add0~13 $end
$var wire 1 !" rc5|Add0~14_combout $end
$var wire 1 "" rc5|Add0~26_combout $end
$var wire 1 #" rc5|feedback_seed~combout $end
$var wire 1 $" seed4[5]~input_o $end
$var wire 1 %" seed4[4]~input_o $end
$var wire 1 &" rc5|Add0~15 $end
$var wire 1 '" rc5|Add0~17 $end
$var wire 1 (" rc5|Add0~18_combout $end
$var wire 1 )" rc5|Add0~27_combout $end
$var wire 1 *" rc5|Add0~16_combout $end
$var wire 1 +" rc5|Add0~29_combout $end
$var wire 1 ," rc5|Add0~5_combout $end
$var wire 1 -" seed4[6]~input_o $end
$var wire 1 ." rc5|Add0~19 $end
$var wire 1 /" rc5|Add0~20_combout $end
$var wire 1 0" rc5|Add0~30_combout $end
$var wire 1 1" rc5|Add0~4_combout $end
$var wire 1 2" rc5|Add0~6_combout $end
$var wire 1 3" seed4[7]~input_o $end
$var wire 1 4" rc5|Add0~21 $end
$var wire 1 5" rc5|Add0~22_combout $end
$var wire 1 6" rc5|Add0~24_combout $end
$var wire 1 7" rc5|feedback~combout $end
$var wire 1 8" rc5|Add0~7_combout $end
$var wire 1 9" rc5|Add0~9_combout $end
$var wire 1 :" seed5[4]~input_o $end
$var wire 1 ;" seed5[3]~input_o $end
$var wire 1 <" seed5[2]~input_o $end
$var wire 1 =" seed5[1]~input_o $end
$var wire 1 >" seed5[0]~input_o $end
$var wire 1 ?" rc6|Add0~8 $end
$var wire 1 @" rc6|Add0~11 $end
$var wire 1 A" rc6|Add0~13 $end
$var wire 1 B" rc6|Add0~15 $end
$var wire 1 C" rc6|Add0~16_combout $end
$var wire 1 D" rc6|Add0~29_combout $end
$var wire 1 E" seed5[5]~input_o $end
$var wire 1 F" rc6|Add0~17 $end
$var wire 1 G" rc6|Add0~18_combout $end
$var wire 1 H" rc6|Add0~27_combout $end
$var wire 1 I" seed5[6]~input_o $end
$var wire 1 J" rc6|Add0~19 $end
$var wire 1 K" rc6|Add0~20_combout $end
$var wire 1 L" rc6|Add0~30_combout $end
$var wire 1 M" seed5[7]~input_o $end
$var wire 1 N" rc6|Add0~21 $end
$var wire 1 O" rc6|Add0~22_combout $end
$var wire 1 P" rc6|Add0~24_combout $end
$var wire 1 Q" rc6|Add0~5_combout $end
$var wire 1 R" rc6|Add0~4_combout $end
$var wire 1 S" rc6|Add0~6_combout $end
$var wire 1 T" rc6|Add0~12_combout $end
$var wire 1 U" rc6|Add0~28_combout $end
$var wire 1 V" rc6|Add0~14_combout $end
$var wire 1 W" rc6|Add0~26_combout $end
$var wire 1 X" rc6|feedback_seed~combout $end
$var wire 1 Y" rc6|Add0~10_combout $end
$var wire 1 Z" rc6|Add0~25_combout $end
$var wire 1 [" rc6|feedback~combout $end
$var wire 1 \" rc6|Add0~7_combout $end
$var wire 1 ]" rc6|Add0~9_combout $end
$var wire 1 ^" seed6[4]~input_o $end
$var wire 1 _" seed6[3]~input_o $end
$var wire 1 `" seed6[2]~input_o $end
$var wire 1 a" seed6[1]~input_o $end
$var wire 1 b" seed6[0]~input_o $end
$var wire 1 c" rc7|Add0~8 $end
$var wire 1 d" rc7|Add0~11 $end
$var wire 1 e" rc7|Add0~13 $end
$var wire 1 f" rc7|Add0~15 $end
$var wire 1 g" rc7|Add0~16_combout $end
$var wire 1 h" rc7|Add0~5_combout $end
$var wire 1 i" rc7|Add0~4_combout $end
$var wire 1 j" rc7|Add0~6_combout $end
$var wire 1 k" rc7|Add0~29_combout $end
$var wire 1 l" seed6[5]~input_o $end
$var wire 1 m" rc7|Add0~17 $end
$var wire 1 n" rc7|Add0~18_combout $end
$var wire 1 o" rc7|Add0~27_combout $end
$var wire 1 p" rc7|feedback_seed~combout $end
$var wire 1 q" rc7|Add0~10_combout $end
$var wire 1 r" rc7|Add0~25_combout $end
$var wire 1 s" rc7|Add0~12_combout $end
$var wire 1 t" rc7|Add0~28_combout $end
$var wire 1 u" rc7|Add0~14_combout $end
$var wire 1 v" rc7|Add0~26_combout $end
$var wire 1 w" seed6[6]~input_o $end
$var wire 1 x" rc7|Add0~19 $end
$var wire 1 y" rc7|Add0~20_combout $end
$var wire 1 z" rc7|Add0~30_combout $end
$var wire 1 {" seed6[7]~input_o $end
$var wire 1 |" rc7|Add0~21 $end
$var wire 1 }" rc7|Add0~22_combout $end
$var wire 1 ~" rc7|Add0~24_combout $end
$var wire 1 !# rc7|feedback~combout $end
$var wire 1 "# rc7|Add0~7_combout $end
$var wire 1 ## rc7|Add0~9_combout $end
$var wire 1 $# seed7[2]~input_o $end
$var wire 1 %# seed7[1]~input_o $end
$var wire 1 &# seed7[0]~input_o $end
$var wire 1 '# rc8|Add0~8 $end
$var wire 1 (# rc8|Add0~11 $end
$var wire 1 )# rc8|Add0~12_combout $end
$var wire 1 *# rc8|Add0~28_combout $end
$var wire 1 +# seed7[3]~input_o $end
$var wire 1 ,# rc8|Add0~13 $end
$var wire 1 -# rc8|Add0~14_combout $end
$var wire 1 .# rc8|Add0~26_combout $end
$var wire 1 /# seed7[4]~input_o $end
$var wire 1 0# rc8|Add0~15 $end
$var wire 1 1# rc8|Add0~16_combout $end
$var wire 1 2# rc8|Add0~29_combout $end
$var wire 1 3# seed7[5]~input_o $end
$var wire 1 4# rc8|Add0~17 $end
$var wire 1 5# rc8|Add0~18_combout $end
$var wire 1 6# rc8|Add0~27_combout $end
$var wire 1 7# rc8|feedback_seed~combout $end
$var wire 1 8# rc8|Add0~10_combout $end
$var wire 1 9# rc8|Add0~25_combout $end
$var wire 1 :# rc8|Add0~4_combout $end
$var wire 1 ;# rc8|Add0~5_combout $end
$var wire 1 <# seed7[6]~input_o $end
$var wire 1 =# rc8|Add0~19 $end
$var wire 1 ># rc8|Add0~20_combout $end
$var wire 1 ?# rc8|Add0~30_combout $end
$var wire 1 @# rc8|Add0~6_combout $end
$var wire 1 A# seed7[7]~input_o $end
$var wire 1 B# rc8|Add0~21 $end
$var wire 1 C# rc8|Add0~22_combout $end
$var wire 1 D# rc8|Add0~24_combout $end
$var wire 1 E# rc8|feedback~combout $end
$var wire 1 F# rc8|Add0~7_combout $end
$var wire 1 G# rc8|Add0~9_combout $end
$var wire 1 H# rc1|data [7] $end
$var wire 1 I# rc1|data [6] $end
$var wire 1 J# rc1|data [5] $end
$var wire 1 K# rc1|data [4] $end
$var wire 1 L# rc1|data [3] $end
$var wire 1 M# rc1|data [2] $end
$var wire 1 N# rc1|data [1] $end
$var wire 1 O# rc1|data [0] $end
$var wire 1 P# rc8|data [7] $end
$var wire 1 Q# rc8|data [6] $end
$var wire 1 R# rc8|data [5] $end
$var wire 1 S# rc8|data [4] $end
$var wire 1 T# rc8|data [3] $end
$var wire 1 U# rc8|data [2] $end
$var wire 1 V# rc8|data [1] $end
$var wire 1 W# rc8|data [0] $end
$var wire 1 X# rc6|data [7] $end
$var wire 1 Y# rc6|data [6] $end
$var wire 1 Z# rc6|data [5] $end
$var wire 1 [# rc6|data [4] $end
$var wire 1 \# rc6|data [3] $end
$var wire 1 ]# rc6|data [2] $end
$var wire 1 ^# rc6|data [1] $end
$var wire 1 _# rc6|data [0] $end
$var wire 1 `# rc4|data [7] $end
$var wire 1 a# rc4|data [6] $end
$var wire 1 b# rc4|data [5] $end
$var wire 1 c# rc4|data [4] $end
$var wire 1 d# rc4|data [3] $end
$var wire 1 e# rc4|data [2] $end
$var wire 1 f# rc4|data [1] $end
$var wire 1 g# rc4|data [0] $end
$var wire 1 h# rc2|data [7] $end
$var wire 1 i# rc2|data [6] $end
$var wire 1 j# rc2|data [5] $end
$var wire 1 k# rc2|data [4] $end
$var wire 1 l# rc2|data [3] $end
$var wire 1 m# rc2|data [2] $end
$var wire 1 n# rc2|data [1] $end
$var wire 1 o# rc2|data [0] $end
$var wire 1 p# rc7|data [7] $end
$var wire 1 q# rc7|data [6] $end
$var wire 1 r# rc7|data [5] $end
$var wire 1 s# rc7|data [4] $end
$var wire 1 t# rc7|data [3] $end
$var wire 1 u# rc7|data [2] $end
$var wire 1 v# rc7|data [1] $end
$var wire 1 w# rc7|data [0] $end
$var wire 1 x# rc5|data [7] $end
$var wire 1 y# rc5|data [6] $end
$var wire 1 z# rc5|data [5] $end
$var wire 1 {# rc5|data [4] $end
$var wire 1 |# rc5|data [3] $end
$var wire 1 }# rc5|data [2] $end
$var wire 1 ~# rc5|data [1] $end
$var wire 1 !$ rc5|data [0] $end
$var wire 1 "$ rc3|data [7] $end
$var wire 1 #$ rc3|data [6] $end
$var wire 1 $$ rc3|data [5] $end
$var wire 1 %$ rc3|data [4] $end
$var wire 1 &$ rc3|data [3] $end
$var wire 1 '$ rc3|data [2] $end
$var wire 1 ($ rc3|data [1] $end
$var wire 1 )$ rc3|data [0] $end
$upscope $end
$upscope $end
$enddefinitions $end
#0
$dumpvars
0!
b11100111 "
b110101 #
b11101001 $
b10100111 %
b1000100 &
b10011110 '
b1100100 (
b11110010 )
11
10
1/
1.
1-
1,
1+
1*
02
13
x4
15
16
17
18
19
1:
1;
1<
1=
1>
1?
0@
0A
0B
0C
1D
1E
1F
0G
0H
0I
1J
0K
0L
1M
1N
1O
1P
0Q
1R
0S
1T
0U
1V
1W
1X
0Y
0Z
0[
0\
0]
1^
1_
0`
0a
1b
0c
1d
0e
1f
0g
0h
1i
0j
1k
0l
1m
1n
0o
1p
0q
1r
0s
1t
0u
1v
1w
1x
0y
0z
0{
1|
0}
0~
0!!
1"!
0#!
1$!
0%!
1&!
0'!
0(!
0)!
1*!
0+!
0,!
0-!
1.!
0/!
10!
11!
02!
13!
04!
05!
16!
07!
08!
09!
1:!
1;!
1<!
1=!
0>!
0?!
1@!
0A!
0B!
0C!
1D!
0E!
1F!
0G!
0H!
1I!
1J!
1K!
0L!
0M!
1N!
0O!
1P!
1Q!
0R!
0S!
1T!
0U!
1V!
0W!
0X!
1Y!
0Z!
1[!
0\!
1]!
0^!
0_!
0`!
1a!
1b!
0c!
0d!
1e!
1f!
1g!
1h!
0i!
0j!
0k!
0l!
1m!
0n!
0o!
1p!
0q!
1r!
0s!
0t!
0u!
0v!
1w!
0x!
1y!
1z!
0{!
1|!
0}!
1~!
0!"
1""
0#"
0$"
0%"
0&"
1'"
0("
1)"
0*"
1+"
0,"
1-"
0."
1/"
00"
01"
02"
03"
14"
05"
16"
07"
08"
19"
1:"
1;"
1<"
1="
0>"
0?"
0@"
1A"
0B"
1C"
0D"
0E"
1F"
0G"
1H"
0I"
0J"
0K"
1L"
1M"
1N"
1O"
0P"
0Q"
0R"
0S"
1T"
0U"
1V"
0W"
0X"
0Y"
1Z"
0["
0\"
1]"
0^"
0_"
1`"
0a"
0b"
0c"
1d"
1e"
0f"
0g"
0h"
0i"
0j"
1k"
1l"
1m"
1n"
0o"
0p"
1q"
0r"
0s"
1t"
0u"
1v"
1w"
0x"
1y"
0z"
0{"
1|"
0}"
1~"
0!#
0"#
1##
0$#
1%#
0&#
0'#
0(#
0)#
1*#
0+#
1,#
0-#
1.#
1/#
00#
11#
02#
13#
14#
15#
06#
07#
08#
19#
0:#
0;#
1<#
0=#
1>#
0?#
0@#
1A#
1B#
1C#
0D#
0E#
0F#
1G#
0O#
0N#
0M#
0L#
0K#
0J#
0I#
0H#
0W#
0V#
0U#
0T#
0S#
0R#
0Q#
0P#
0_#
0^#
0]#
0\#
0[#
0Z#
0Y#
0X#
0g#
0f#
0e#
0d#
0c#
0b#
0a#
0`#
0o#
0n#
0m#
0l#
0k#
0j#
0i#
0h#
0w#
0v#
0u#
0t#
0s#
0r#
0q#
0p#
0!$
0~#
0}#
0|#
0{#
0z#
0y#
0x#
0)$
0($
0'$
0&$
0%$
0$$
0#$
0"$
$end
#10000
1!
1@
1A
1W#
1V#
1T#
1U#
1w#
1p#
1t#
1u#
1s#
1_#
1^#
1Y#
1Z#
1!$
1x#
1{#
1z#
1|#
1}#
1f#
1a#
1c#
1d#
1%$
1&$
1h#
1i#
1l#
1m#
1L#
1N#
1K#
0<
0=
0>
0?
1(#
18#
1E#
0,#
1)#
17#
01#
10#
1-#
0q"
1!#
1p"
0m"
1g"
1f"
1u"
0n"
1@"
1Y"
1["
0T"
0O"
1X"
0N"
1K"
0w!
17"
1,"
1."
1("
0/"
0'"
1*"
1&"
1!"
1q!
0V!
0h!
0m!
1o!
0b!
1`!
0=!
1?!
0<!
19!
1h
1%!
1z
0t
1s
1{
1c
0O
1L
0_
1G
0P
0*
0+
0,
0-
12#
0e!
0"!
1u
0)#
1F#
0-#
04#
11#
1"#
1x"
1n"
0g"
0A"
1T"
1\"
1O"
18"
04"
1/"
0("
0*"
1R!
0r!
1c!
1m!
1E!
1=!
1j
0*!
0w
1t
1S
1P
1H
0d
0G#
1r"
0##
0~"
0t"
1o"
0]"
1U"
1P"
0H"
1x!
0)"
10"
0+"
0""
1W!
1i!
1n!
0p!
0[!
1>!
1O!
06!
0p
0b
1`
0^
1Q
05#
0y"
0V"
15"
1S!
0g!
1d!
0F!
0n
0k
0x
0T
1]
09"
00"
1)"
1+"
1h!
1o
06"
#20000
0!
0@
0A
#30000
1!
1@
1A
0W#
1S#
0w#
0p#
0u#
1v#
1r#
0_#
1]#
1X#
0Z#
0!$
0x#
0|#
1~#
0f#
1b#
1`#
0a#
0d#
1e#
1)$
1$$
0&$
0i#
1k#
0m#
0L#
1M#
0N#
1J#
0:
1<
1=
1>
1?
0(#
08#
1=#
15#
1q"
0f"
0u"
0e"
1s"
0|"
1y"
0p"
0@"
0Y"
1B"
1V"
0["
0X"
1N"
0K"
1w!
0,"
1*"
1#"
0~!
1{!
1V!
0d!
0h!
1b!
0`!
1_!
1Z!
0@!
0J!
1F!
1<!
09!
0%!
1~
1x
0s
0{
1O
0L
1K
1a
1_
0G
0W
1T
1*
1+
1,
1-
0/
09#
16#
0r"
0v"
1t"
1z"
0Z"
1W"
0L"
10"
0+"
0W!
1e!
0a!
0i!
1[!
1A!
1G!
0:!
0&!
1y
0|
1U
0M
1b
0`
1)#
0>#
1g"
1f"
1u"
1}"
1A"
0T"
0C"
0\"
0O"
0!"
0c!
0m!
0b!
1`!
0K!
0E!
0=!
0$!
1!!
1w
0t
0S
0P
0O
1L
0H
1d
0X
1v"
0t"
0z"
1~"
0o"
1Z"
0W"
0U"
0P"
1H"
1L"
0x!
1""
1e
0g"
0B"
0V"
1d!
1c!
1m!
1J!
0F!
1%!
0~
0x
1W
0T
1S
1P
0]
0k"
0v"
0~"
1U"
1D"
1]"
1P"
1C"
0d!
1K!
1$!
0!!
1X
0W
1T
1k"
1W"
0%!
0X
0D"
#40000
0!
0@
0A
#50000
1!
1@
1A
0V#
1R#
0t#
0v#
0r#
1_#
1\#
1Z#
1y#
0{#
1|#
0~#
0`#
1a#
0c#
1d#
0e#
1#$
1($
0%$
0h#
0l#
1j#
1O#
1L#
0M#
1I#
0K#
08
0=
0E#
1,#
0)#
0B#
1>#
1;#
07#
1g"
0!#
1e"
0s"
1|"
0y"
1R"
1@"
1Y"
0C"
0N"
1K"
05"
1("
0*"
0#"
07"
1~!
0{!
0q!
1h!
0c!
0m!
0o!
0`!
0_!
0Z!
0K!
1M!
01!
1=!
0h
1t
0$!
1!!
1I
1]
0c
0L
0K
0a
1X
0S
0P
0,
01
0*#
1?#
02#
16"
0)"
00"
0|!
1i!
0n!
0[!
1L!
12!
0>!
1"!
0u
1^
0U
0b
1Y
0Q
0F#
1-#
0C#
0"#
0f"
0u"
0}"
0A"
1T"
1O"
08"
1!"
0R!
1r!
1d!
1`!
1/!
0N!
0j
1*!
1%!
0_
1L
1W
0T
1*#
0?#
19#
06#
0k"
1t"
1z"
0Z"
1D"
0L"
1+"
1|!
1s!
0i!
1n!
1[!
1a!
0O!
1+!
0^
0e
1b
0Y
1Q
1M
1m"
0g"
1B"
1V"
0S!
1@!
1n
1k
0X
1G#
0.#
1D#
1##
1v"
1~"
0U"
0P"
19"
0""
0s!
0e!
0a!
1`
0M
1U
0x"
0n"
0F"
1C"
0o
1k"
0W"
1p!
1Y
1y"
1J"
1G"
1o"
0D"
0K"
0z"
0H"
1L"
#60000
0!
0@
0A
#70000
1!
1@
1A
1W#
1P#
1V#
0R#
0S#
0T#
1w#
1p#
1t#
1u#
1r#
0^#
0\#
0]#
0X#
0Z#
1!$
1x#
0y#
1{#
0z#
0|#
1f#
0a#
0)$
1"$
0$$
1'$
1o#
1i#
0k#
0O#
1M#
1H#
18
09
1:
0<
0>
0?
1:#
1(#
18#
0,#
1)#
1B#
0>#
0;#
0=#
05#
14#
01#
0q"
1!#
1h"
0m"
1g"
1f"
1u"
0y"
0R"
1A"
0T"
1F"
0C"
0B"
0V"
1K"
0w!
17"
15"
0("
14"
0/"
1*"
1q!
0V!
0h!
00!
0@!
0M!
1F!
0?!
18!
15!
0k
0%!
1x
0I
0]
1K
1a
1G
0*
0+
0-
1/
00
11
0A!
1:!
16!
1l
1&!
0y
0)#
0-#
1C#
1>#
15#
1"#
1x"
1n"
0g"
1V"
0J"
0G"
1C"
18"
05"
1R!
0r!
11!
0/!
1N!
0<!
19!
1_
0L
1H
0d
09#
0*#
1?#
16#
12#
1r"
0k"
0v"
1z"
1U"
1D"
1W"
0L"
1x!
06"
1)"
10"
0+"
1W!
1i!
1A!
1O!
0G!
06!
1^
0b
0|"
1y"
1N"
0K"
1S!
10!
1@!
0=!
1]
1*#
1.#
0D#
0?#
06#
0##
0o"
1k"
0W"
1H"
0D"
09"
16"
1s!
02!
0O!
0:!
0`
1M
1e
1}"
0O"
01!
0z"
1L"
0p!
0A!
1>!
0^
0~"
1P"
12!
#80000
0!
0@
0A
#90000
1!
1@
1A
0P#
0V#
1S#
1T#
0w#
0p#
0t#
1v#
0r#
1]#
1X#
1Z#
0!$
1y#
0{#
1z#
1~#
1g#
0f#
1`#
1e#
0#$
0($
1$$
1h#
0j#
1n#
1O#
0L#
0M#
1K#
08
0;
1<
1>
0:#
1)#
05#
17#
04#
11#
1q"
0h"
1g"
0e"
1s"
1|"
0y"
0V"
1["
1X"
0N"
1K"
1w!
15"
1("
04"
1/"
1#"
07"
0~!
1{!
0S!
1V!
1_!
1Z!
1K!
1M!
11!
0F!
1?!
1(!
1$!
0!!
0z
0r
1o
0]
1c
1L
0K
0a
1S
1P
1+
1-
0.
01
1G!
0"!
1p
0M
1=#
15#
0u"
0}"
1\"
1O"
05"
08"
0!"
0`!
1/!
0N!
1%!
1s
1{
1O
0L
0W
1T
0*#
16#
19#
0r"
0k"
0t"
1z"
1W"
0]"
1Z"
0U"
0H"
0x!
0)"
19"
1""
1p!
0W!
0[!
0L!
02!
0>!
16!
1"!
0+!
1|
0p
1^
0e
0>#
00!
0@!
0t
0S
0P
1X
1v"
1~"
1a!
0&!
0|
14!
01!
1W
0T
1u
08!
05!
0X
1<!
09!
1=!
#100000
0!
0@
0A
#110000
1!
1@
1A
1V#
1R#
0U#
1p#
1q#
1t#
0u#
0v#
0s#
0_#
1^#
1\#
0]#
0Z#
1!$
0z#
1|#
0~#
1f#
1c#
0d#
0e#
0"$
1#$
0$$
1&$
0'$
0o#
0h#
1k#
0O#
1N#
0K#
18
19
0<
1=
1E#
1:#
0)#
0B#
1>#
07#
1-#
1}"
1p"
0g"
1u"
1e"
0s"
0x"
0n"
0@"
0Y"
0["
0A"
1T"
0C"
1V"
1N"
0K"
0w!
14"
0/"
0*"
17"
1~!
0{!
0q!
0V!
1c!
1m!
1o!
1`!
0_!
0Z!
0M!
0K!
1F!
0<!
19!
15!
0(!
1k
1h
0x
1]
0_
0G
1P
1,
0-
10
11
1*#
1?#
02#
0.#
0z"
1k"
0Z"
1U"
0L"
1D"
0W"
1x!
00"
1+"
0|!
1e!
0a!
1L!
0G!
1:!
06!
0^
1`
0Q
1F#
0C#
0f"
0u"
1y"
1A"
0T"
0\"
0V"
0O"
15"
18"
1!"
0R!
1r!
0d!
1b!
0`!
0/!
1N!
0=!
1j
0*!
0H
1d
0?#
09#
06#
0v"
1]"
09"
1W!
0i!
1O!
0l
1y
1e
1g"
1V"
1U!
1S!
0c!
0m!
10!
1@!
0n
0k
0]
0G#
1D#
1+!
0Y!
1V!
1d!
04!
11!
1r
0o
1l
1_!
1Z!
05!
0s
0{
1p
0b!
1`!
1t
1|
1c!
1m!
0u
0d!
#120000
0!
0@
0A
