random/simulation/qsim/random.msim.vcd
$comment
	File created using the following command:
		vcd file random.msim.vcd -direction
$end
$date
	Thu Apr 19 20:59:02 2018
$end
$version
	ModelSim Version 10.5b
$end
$timescale
	1ps
$end

$scope module random8_vlg_vec_tst $end
$var reg 1 ! clock $end
$var reg 64 " seeds [63:0] $end
$var wire 1 # data [7] $end
$var wire 1 $ data [6] $end
$var wire 1 % data [5] $end
$var wire 1 & data [4] $end
$var wire 1 ' data [3] $end
$var wire 1 ( data [2] $end
$var wire 1 ) data [1] $end
$var wire 1 * data [0] $end

$scope module i1 $end
$var wire 1 + gnd $end
$var wire 1 , vcc $end
$var wire 1 - unknown $end
$var tri1 1 . devclrn $end
$var tri1 1 / devpor $end
$var tri1 1 0 devoe $end
$var wire 1 1 data[0]~output_o $end
$var wire 1 2 data[1]~output_o $end
$var wire 1 3 data[2]~output_o $end
$var wire 1 4 data[3]~output_o $end
$var wire 1 5 data[4]~output_o $end
$var wire 1 6 data[5]~output_o $end
$var wire 1 7 data[6]~output_o $end
$var wire 1 8 data[7]~output_o $end
$var wire 1 9 clock~input_o $end
$var wire 1 : clock~inputclkctrl_outclk $end
$var wire 1 ; seeds[1]~input_o $end
$var wire 1 < seeds[0]~input_o $end
$var wire 1 = rc1|Add0~8 $end
$var wire 1 > rc1|Add0~10_combout $end
$var wire 1 ? rc1|Add0~25_combout $end
$var wire 1 @ seeds[2]~input_o $end
$var wire 1 A rc1|Add0~11 $end
$var wire 1 B rc1|Add0~12_combout $end
$var wire 1 C rc1|Add0~28_combout $end
$var wire 1 D rc1|Add0~5_combout $end
$var wire 1 E rc1|Add0~4_combout $end
$var wire 1 F rc1|Add0~6_combout $end
$var wire 1 G seeds[4]~input_o $end
$var wire 1 H seeds[3]~input_o $end
$var wire 1 I rc1|Add0~13 $end
$var wire 1 J rc1|Add0~15 $end
$var wire 1 K rc1|Add0~16_combout $end
$var wire 1 L rc1|Add0~29_combout $end
$var wire 1 M seeds[5]~input_o $end
$var wire 1 N rc1|Add0~17 $end
$var wire 1 O rc1|Add0~18_combout $end
$var wire 1 P rc1|Add0~27_combout $end
$var wire 1 Q rc1|feedback_seed~combout $end
$var wire 1 R rc1|Add0~14_combout $end
$var wire 1 S rc1|Add0~26_combout $end
$var wire 1 T seeds[6]~input_o $end
$var wire 1 U rc1|Add0~19 $end
$var wire 1 V rc1|Add0~20_combout $end
$var wire 1 W rc1|Add0~30_combout $end
$var wire 1 X seeds[7]~input_o $end
$var wire 1 Y rc1|Add0~21 $end
$var wire 1 Z rc1|Add0~22_combout $end
$var wire 1 [ rc1|Add0~24_combout $end
$var wire 1 \ rc1|feedback~combout $end
$var wire 1 ] rc1|Add0~7_combout $end
$var wire 1 ^ rc1|Add0~9_combout $end
$var wire 1 _ seeds[10]~input_o $end
$var wire 1 ` seeds[9]~input_o $end
$var wire 1 a seeds[8]~input_o $end
$var wire 1 b rc2|Add0~8 $end
$var wire 1 c rc2|Add0~10 $end
$var wire 1 d rc2|Add0~13_combout $end
$var wire 1 e rc2|Add0~23_combout $end
$var wire 1 f seeds[12]~input_o $end
$var wire 1 g seeds[11]~input_o $end
$var wire 1 h rc2|Add0~14 $end
$var wire 1 i rc2|Add0~16 $end
$var wire 1 j rc2|Add0~18_combout $end
$var wire 1 k rc2|Add0~29_combout $end
$var wire 1 l rc2|Add0~5_combout $end
$var wire 1 m rc2|Add0~4_combout $end
$var wire 1 n rc2|Add0~6_combout $end
$var wire 1 o rc2|Add0~15_combout $end
$var wire 1 p rc2|Add0~17_combout $end
$var wire 1 q rc2|feedback_seed~combout $end
$var wire 1 r seeds[13]~input_o $end
$var wire 1 s rc2|Add0~19 $end
$var wire 1 t rc2|Add0~20_combout $end
$var wire 1 u rc2|Add0~22_combout $end
$var wire 1 v seeds[14]~input_o $end
$var wire 1 w rc2|Add0~21 $end
$var wire 1 x rc2|Add0~24_combout $end
$var wire 1 y rc2|Add0~30_combout $end
$var wire 1 z seeds[15]~input_o $end
$var wire 1 { rc2|Add0~25 $end
$var wire 1 | rc2|Add0~26_combout $end
$var wire 1 } rc2|Add0~28_combout $end
$var wire 1 ~ rc2|feedback~combout $end
$var wire 1 !! rc2|Add0~7_combout $end
$var wire 1 "! rc2|Add0~12_combout $end
$var wire 1 #! rc2|Add0~9_combout $end
$var wire 1 $! rc2|Add0~11_combout $end
$var wire 1 %! seeds[19]~input_o $end
$var wire 1 &! seeds[22]~input_o $end
$var wire 1 '! seeds[21]~input_o $end
$var wire 1 (! seeds[20]~input_o $end
$var wire 1 )! rc3|Add0~17 $end
$var wire 1 *! rc3|Add0~19_combout $end
$var wire 1 +! rc3|Add0~29_combout $end
$var wire 1 ,! rc3|Add0~20 $end
$var wire 1 -! rc3|Add0~22 $end
$var wire 1 .! rc3|Add0~24_combout $end
$var wire 1 /! rc3|Add0~30_combout $end
$var wire 1 0! seeds[23]~input_o $end
$var wire 1 1! rc3|Add0~25 $end
$var wire 1 2! rc3|Add0~26_combout $end
$var wire 1 3! rc3|Add0~28_combout $end
$var wire 1 4! rc3|feedback~combout $end
$var wire 1 5! seeds[16]~input_o $end
$var wire 1 6! rc3|Add0~7_combout $end
$var wire 1 7! rc3|Add0~14_combout $end
$var wire 1 8! seeds[17]~input_o $end
$var wire 1 9! rc3|Add0~8 $end
$var wire 1 :! rc3|Add0~9_combout $end
$var wire 1 ;! rc3|Add0~15_combout $end
$var wire 1 <! seeds[18]~input_o $end
$var wire 1 =! rc3|Add0~10 $end
$var wire 1 >! rc3|Add0~12 $end
$var wire 1 ?! rc3|Add0~16_combout $end
$var wire 1 @! rc3|Add0~18_combout $end
$var wire 1 A! rc3|feedback_seed~combout $end
$var wire 1 B! rc3|Add0~21_combout $end
$var wire 1 C! rc3|Add0~23_combout $end
$var wire 1 D! rc3|Add0~4_combout $end
$var wire 1 E! rc3|Add0~5_combout $end
$var wire 1 F! rc3|Add0~6_combout $end
$var wire 1 G! rc3|Add0~11_combout $end
$var wire 1 H! rc3|Add0~13_combout $end
$var wire 1 I! seeds[28]~input_o $end
$var wire 1 J! seeds[27]~input_o $end
$var wire 1 K! seeds[30]~input_o $end
$var wire 1 L! seeds[29]~input_o $end
$var wire 1 M! rc4|Add0~19 $end
$var wire 1 N! rc4|Add0~21 $end
$var wire 1 O! rc4|Add0~24_combout $end
$var wire 1 P! rc4|Add0~30_combout $end
$var wire 1 Q! seeds[31]~input_o $end
$var wire 1 R! rc4|Add0~25 $end
$var wire 1 S! rc4|Add0~26_combout $end
$var wire 1 T! rc4|Add0~28_combout $end
$var wire 1 U! rc4|feedback~combout $end
$var wire 1 V! seeds[24]~input_o $end
$var wire 1 W! rc4|Add0~7_combout $end
$var wire 1 X! rc4|Add0~16_combout $end
$var wire 1 Y! seeds[25]~input_o $end
$var wire 1 Z! rc4|Add0~8 $end
$var wire 1 [! rc4|Add0~9_combout $end
$var wire 1 \! rc4|Add0~17_combout $end
$var wire 1 ]! seeds[26]~input_o $end
$var wire 1 ^! rc4|Add0~10 $end
$var wire 1 _! rc4|Add0~12 $end
$var wire 1 `! rc4|Add0~14 $end
$var wire 1 a! rc4|Add0~18_combout $end
$var wire 1 b! rc4|Add0~29_combout $end
$var wire 1 c! rc4|Add0~20_combout $end
$var wire 1 d! rc4|Add0~22_combout $end
$var wire 1 e! rc4|feedback_seed~combout $end
$var wire 1 f! rc4|Add0~11_combout $end
$var wire 1 g! rc4|Add0~23_combout $end
$var wire 1 h! rc4|Add0~5_combout $end
$var wire 1 i! rc4|Add0~4_combout $end
$var wire 1 j! rc4|Add0~6_combout $end
$var wire 1 k! rc4|Add0~13_combout $end
$var wire 1 l! rc4|Add0~15_combout $end
$var wire 1 m! seeds[37]~input_o $end
$var wire 1 n! seeds[36]~input_o $end
$var wire 1 o! seeds[35]~input_o $end
$var wire 1 p! seeds[34]~input_o $end
$var wire 1 q! seeds[38]~input_o $end
$var wire 1 r! rc5|Add0~21 $end
$var wire 1 s! rc5|Add0~24_combout $end
$var wire 1 t! rc5|Add0~30_combout $end
$var wire 1 u! seeds[39]~input_o $end
$var wire 1 v! rc5|Add0~25 $end
$var wire 1 w! rc5|Add0~26_combout $end
$var wire 1 x! rc5|Add0~28_combout $end
$var wire 1 y! rc5|feedback~combout $end
$var wire 1 z! seeds[32]~input_o $end
$var wire 1 {! rc5|Add0~7_combout $end
$var wire 1 |! rc5|Add0~17_combout $end
$var wire 1 }! seeds[33]~input_o $end
$var wire 1 ~! rc5|Add0~8 $end
$var wire 1 !" rc5|Add0~9_combout $end
$var wire 1 "" rc5|Add0~18_combout $end
$var wire 1 #" rc5|Add0~10 $end
$var wire 1 $" rc5|Add0~12 $end
$var wire 1 %" rc5|Add0~14 $end
$var wire 1 &" rc5|Add0~16 $end
$var wire 1 '" rc5|Add0~20_combout $end
$var wire 1 (" rc5|Add0~22_combout $end
$var wire 1 )" rc5|feedback_seed~combout $end
$var wire 1 *" rc5|Add0~11_combout $end
$var wire 1 +" rc5|Add0~23_combout $end
$var wire 1 ," rc5|Add0~5_combout $end
$var wire 1 -" rc5|Add0~4_combout $end
$var wire 1 ." rc5|Add0~6_combout $end
$var wire 1 /" rc5|Add0~13_combout $end
$var wire 1 0" rc5|Add0~19_combout $end
$var wire 1 1" rc5|Add0~15_combout $end
$var wire 1 2" rc5|Add0~29_combout $end
$var wire 1 3" rc6|feedback_seed~combout $end
$var wire 1 4" seeds[46]~input_o $end
$var wire 1 5" seeds[45]~input_o $end
$var wire 1 6" seeds[44]~input_o $end
$var wire 1 7" seeds[43]~input_o $end
$var wire 1 8" seeds[42]~input_o $end
$var wire 1 9" seeds[41]~input_o $end
$var wire 1 :" seeds[40]~input_o $end
$var wire 1 ;" rc6|Add0~8 $end
$var wire 1 <" rc6|Add0~10 $end
$var wire 1 =" rc6|Add0~12 $end
$var wire 1 >" rc6|Add0~14 $end
$var wire 1 ?" rc6|Add0~15_combout $end
$var wire 1 @" rc6|Add0~29_combout $end
$var wire 1 A" rc6|Add0~16 $end
$var wire 1 B" rc6|Add0~18 $end
$var wire 1 C" rc6|Add0~24_combout $end
$var wire 1 D" rc6|Add0~30_combout $end
$var wire 1 E" seeds[47]~input_o $end
$var wire 1 F" rc6|Add0~25 $end
$var wire 1 G" rc6|Add0~26_combout $end
$var wire 1 H" rc6|Add0~28_combout $end
$var wire 1 I" rc6|feedback~combout $end
$var wire 1 J" rc6|Add0~7_combout $end
$var wire 1 K" rc6|Add0~20_combout $end
$var wire 1 L" rc6|Add0~9_combout $end
$var wire 1 M" rc6|Add0~21_combout $end
$var wire 1 N" rc6|Add0~11_combout $end
$var wire 1 O" rc6|Add0~23_combout $end
$var wire 1 P" rc6|Add0~13_combout $end
$var wire 1 Q" rc6|Add0~22_combout $end
$var wire 1 R" rc6|Add0~4_combout $end
$var wire 1 S" rc6|Add0~5_combout $end
$var wire 1 T" rc6|Add0~6_combout $end
$var wire 1 U" rc6|Add0~17_combout $end
$var wire 1 V" rc6|Add0~19_combout $end
$var wire 1 W" rc7|feedback_seed~combout $end
$var wire 1 X" seeds[55]~input_o $end
$var wire 1 Y" seeds[54]~input_o $end
$var wire 1 Z" seeds[53]~input_o $end
$var wire 1 [" seeds[52]~input_o $end
$var wire 1 \" seeds[51]~input_o $end
$var wire 1 ]" seeds[50]~input_o $end
$var wire 1 ^" seeds[49]~input_o $end
$var wire 1 _" seeds[48]~input_o $end
$var wire 1 `" rc7|Add0~8 $end
$var wire 1 a" rc7|Add0~10 $end
$var wire 1 b" rc7|Add0~12 $end
$var wire 1 c" rc7|Add0~14 $end
$var wire 1 d" rc7|Add0~16 $end
$var wire 1 e" rc7|Add0~18 $end
$var wire 1 f" rc7|Add0~20 $end
$var wire 1 g" rc7|Add0~26_combout $end
$var wire 1 h" rc7|Add0~28_combout $end
$var wire 1 i" rc7|feedback~combout $end
$var wire 1 j" rc7|Add0~7_combout $end
$var wire 1 k" rc7|Add0~21_combout $end
$var wire 1 l" rc7|Add0~9_combout $end
$var wire 1 m" rc7|Add0~22_combout $end
$var wire 1 n" rc7|Add0~11_combout $end
$var wire 1 o" rc7|Add0~25_combout $end
$var wire 1 p" rc7|Add0~13_combout $end
$var wire 1 q" rc7|Add0~23_combout $end
$var wire 1 r" rc7|Add0~15_combout $end
$var wire 1 s" rc7|Add0~30_combout $end
$var wire 1 t" rc7|Add0~17_combout $end
$var wire 1 u" rc7|Add0~24_combout $end
$var wire 1 v" rc7|Add0~5_combout $end
$var wire 1 w" rc7|Add0~4_combout $end
$var wire 1 x" rc7|Add0~6_combout $end
$var wire 1 y" rc7|Add0~19_combout $end
$var wire 1 z" rc7|Add0~29_combout $end
$var wire 1 {" rc8|feedback~combout $end
$var wire 1 |" seeds[56]~input_o $end
$var wire 1 }" rc8|Add0~7_combout $end
$var wire 1 ~" rc8|feedback_seed~combout $end
$var wire 1 !# rc8|Add0~5_combout $end
$var wire 1 "# rc8|Add0~4_combout $end
$var wire 1 ## rc8|Add0~6_combout $end
$var wire 1 $# rc8|Add0~24_combout $end
$var wire 1 %# seeds[57]~input_o $end
$var wire 1 &# rc8|Add0~8 $end
$var wire 1 '# rc8|Add0~9_combout $end
$var wire 1 (# rc8|Add0~25_combout $end
$var wire 1 )# seeds[58]~input_o $end
$var wire 1 *# rc8|Add0~10 $end
$var wire 1 +# rc8|Add0~11_combout $end
$var wire 1 ,# rc8|Add0~28_combout $end
$var wire 1 -# seeds[59]~input_o $end
$var wire 1 .# rc8|Add0~12 $end
$var wire 1 /# rc8|Add0~13_combout $end
$var wire 1 0# rc8|Add0~26_combout $end
$var wire 1 1# seeds[60]~input_o $end
$var wire 1 2# rc8|Add0~14 $end
$var wire 1 3# rc8|Add0~15_combout $end
$var wire 1 4# rc8|Add0~29_combout $end
$var wire 1 5# seeds[61]~input_o $end
$var wire 1 6# rc8|Add0~16 $end
$var wire 1 7# rc8|Add0~17_combout $end
$var wire 1 8# rc8|Add0~27_combout $end
$var wire 1 9# seeds[62]~input_o $end
$var wire 1 :# rc8|Add0~18 $end
$var wire 1 ;# rc8|Add0~19_combout $end
$var wire 1 <# rc8|Add0~30_combout $end
$var wire 1 =# seeds[63]~input_o $end
$var wire 1 ># rc8|Add0~20 $end
$var wire 1 ?# rc8|Add0~21_combout $end
$var wire 1 @# rc8|Add0~23_combout $end
$var wire 1 A# rc8|data [7] $end
$var wire 1 B# rc8|data [6] $end
$var wire 1 C# rc8|data [5] $end
$var wire 1 D# rc8|data [4] $end
$var wire 1 E# rc8|data [3] $end
$var wire 1 F# rc8|data [2] $end
$var wire 1 G# rc8|data [1] $end
$var wire 1 H# rc8|data [0] $end
$var wire 1 I# rc7|data [7] $end
$var wire 1 J# rc7|data [6] $end
$var wire 1 K# rc7|data [5] $end
$var wire 1 L# rc7|data [4] $end
$var wire 1 M# rc7|data [3] $end
$var wire 1 N# rc7|data [2] $end
$var wire 1 O# rc7|data [1] $end
$var wire 1 P# rc7|data [0] $end
$var wire 1 Q# rc6|data [7] $end
$var wire 1 R# rc6|data [6] $end
$var wire 1 S# rc6|data [5] $end
$var wire 1 T# rc6|data [4] $end
$var wire 1 U# rc6|data [3] $end
$var wire 1 V# rc6|data [2] $end
$var wire 1 W# rc6|data [1] $end
$var wire 1 X# rc6|data [0] $end
$var wire 1 Y# rc5|data [7] $end
$var wire 1 Z# rc5|data [6] $end
$var wire 1 [# rc5|data [5] $end
$var wire 1 \# rc5|data [4] $end
$var wire 1 ]# rc5|data [3] $end
$var wire 1 ^# rc5|data [2] $end
$var wire 1 _# rc5|data [1] $end
$var wire 1 `# rc5|data [0] $end
$var wire 1 a# rc4|data [7] $end
$var wire 1 b# rc4|data [6] $end
$var wire 1 c# rc4|data [5] $end
$var wire 1 d# rc4|data [4] $end
$var wire 1 e# rc4|data [3] $end
$var wire 1 f# rc4|data [2] $end
$var wire 1 g# rc4|data [1] $end
$var wire 1 h# rc4|data [0] $end
$var wire 1 i# rc3|data [7] $end
$var wire 1 j# rc3|data [6] $end
$var wire 1 k# rc3|data [5] $end
$var wire 1 l# rc3|data [4] $end
$var wire 1 m# rc3|data [3] $end
$var wire 1 n# rc3|data [2] $end
$var wire 1 o# rc3|data [1] $end
$var wire 1 p# rc3|data [0] $end
$var wire 1 q# rc2|data [7] $end
$var wire 1 r# rc2|data [6] $end
$var wire 1 s# rc2|data [5] $end
$var wire 1 t# rc2|data [4] $end
$var wire 1 u# rc2|data [3] $end
$var wire 1 v# rc2|data [2] $end
$var wire 1 w# rc2|data [1] $end
$var wire 1 x# rc2|data [0] $end
$var wire 1 y# rc1|data [7] $end
$var wire 1 z# rc1|data [6] $end
$var wire 1 {# rc1|data [5] $end
$var wire 1 |# rc1|data [4] $end
$var wire 1 }# rc1|data [3] $end
$var wire 1 ~# rc1|data [2] $end
$var wire 1 !$ rc1|data [1] $end
$var wire 1 "$ rc1|data [0] $end
$upscope $end
$upscope $end
$enddefinitions $end
#0
$dumpvars
0!
b0 "
1*
1)
1(
1'
1&
1%
1$
1#
0+
1,
x-
1.
1/
10
11
12
13
14
15
16
17
18
09
0:
0;
0<
0=
1>
0?
0@
1A
1B
0C
0D
0E
0F
0G
0H
0I
1J
1K
0L
0M
0N
1O
0P
0Q
1R
0S
0T
1U
1V
0W
0X
0Y
1Z
0[
0\
0]
1^
0_
0`
0a
0b
1c
1d
0e
0f
0g
0h
1i
1j
0k
0l
0m
0n
1o
0p
0q
0r
0s
1t
0u
0v
1w
1x
0y
0z
0{
1|
0}
0~
0!!
1"!
1#!
0$!
0%!
0&!
0'!
0(!
1)!
1*!
0+!
0,!
1-!
1.!
0/!
00!
01!
12!
03!
04!
05!
06!
17!
08!
09!
1:!
0;!
0<!
1=!
0>!
1?!
0@!
0A!
1B!
0C!
0D!
0E!
0F!
1G!
0H!
0I!
0J!
0K!
0L!
0M!
1N!
1O!
0P!
0Q!
0R!
1S!
0T!
0U!
0V!
0W!
1X!
0Y!
0Z!
1[!
0\!
0]!
1^!
0_!
1`!
1a!
0b!
1c!
0d!
0e!
1f!
0g!
0h!
0i!
0j!
1k!
0l!
0m!
0n!
0o!
0p!
0q!
1r!
1s!
0t!
0u!
0v!
1w!
0x!
0y!
0z!
0{!
1|!
0}!
0~!
1!"
0""
1#"
0$"
1%"
0&"
1'"
0("
0)"
1*"
0+"
0,"
0-"
0."
1/"
00"
11"
02"
03"
04"
05"
06"
07"
08"
09"
0:"
0;"
1<"
0="
1>"
1?"
0@"
0A"
1B"
1C"
0D"
0E"
0F"
1G"
0H"
0I"
0J"
1K"
1L"
0M"
1N"
0O"
1P"
0Q"
0R"
0S"
0T"
1U"
0V"
0W"
0X"
0Y"
0Z"
0["
0\"
0]"
0^"
0_"
0`"
1a"
0b"
1c"
0d"
1e"
0f"
1g"
0h"
0i"
0j"
1k"
1l"
0m"
1n"
0o"
1p"
0q"
1r"
0s"
1t"
0u"
0v"
0w"
0x"
1y"
0z"
0{"
0|"
0}"
0~"
0!#
0"#
0##
1$#
0%#
0&#
1'#
0(#
0)#
1*#
1+#
0,#
0-#
0.#
1/#
00#
01#
12#
13#
04#
05#
06#
17#
08#
09#
1:#
1;#
0<#
0=#
0>#
1?#
0@#
0H#
0G#
0F#
0E#
0D#
0C#
0B#
0A#
0P#
0O#
0N#
0M#
0L#
0K#
0J#
0I#
0X#
0W#
0V#
0U#
0T#
0S#
0R#
0Q#
0`#
0_#
0^#
0]#
0\#
0[#
0Z#
0Y#
0h#
0g#
0f#
0e#
0d#
0c#
0b#
0a#
0p#
0o#
0n#
0m#
0l#
0k#
0j#
0i#
0x#
0w#
0v#
0u#
0t#
0s#
0r#
0q#
0"$
0!$
0~#
0}#
0|#
0{#
0z#
0y#
$end
#10000
1!
19
1:
1H#
1P#
1X#
1`#
1h#
1p#
1x#
1"$
01
0'#
0l"
0L"
0!"
0[!
0:!
0#!
0>
0*
1(#
1m"
1M"
1""
1\!
1;!
1$!
1?
#20000
0!
09
0:
#30000
1!
19
1:
1G#
1O#
1W#
1_#
1g#
1o#
1w#
1!$
02
0+#
1"#
1{"
1w"
1i"
0n"
1R"
1I"
0N"
1-"
0*"
1y!
1i!
0f!
1U!
1D!
0G!
14!
1~
1m
0d
1\
1E
0B
0)
1}"
1j"
1J"
1{!
1W!
16!
1!!
1]
1,#
1o"
1O"
1+"
1g!
1H!
1e
1C
0$#
0k"
0K"
0|!
0X!
07!
0"!
0^
#40000
0!
09
0:
#50000
1!
19
1:
1F#
0H#
1N#
0P#
1V#
0X#
1^#
0`#
1f#
0h#
1n#
0p#
0x#
1v#
0"$
1~#
11
03
0/#
1'#
0"#
0p"
0w"
1l"
0P"
0R"
1L"
0/"
0-"
1!"
0k!
0i!
1[!
0?!
0D!
1:!
0m
1#!
0o
0E
1>
0R
0(
1*
10#
0(#
1q"
0m"
1Q"
0M"
10"
0""
1l!
0\!
1@!
0;!
0$!
1p
0?
1S
#60000
0!
09
0:
#70000
1!
19
1:
1E#
0G#
1M#
0O#
1U#
0W#
1]#
0_#
1e#
0g#
1m#
0o#
0w#
1u#
1}#
0!$
12
04
03#
1~"
1+#
0{"
0r"
1W"
0i"
1n"
0?"
13"
0I"
1N"
1)"
01"
1*"
0y!
1e!
0a!
1f!
0U!
1A!
0*!
1G!
04!
0~
1d
1q
0j
1Q
0K
0\
1B
0'
1)
14#
1s"
1@"
12"
1b!
1+!
1k
1L
0}"
0j"
0J"
0{!
0W!
06!
0!!
0]
0,#
1$#
0o"
1k"
0O"
1K"
0+"
1|!
0g!
1X!
0H!
17!
1"!
0e
1^
0C
#80000
0!
09
0:
#90000
1!
19
1:
1D#
0F#
1H#
1L#
0N#
1P#
0V#
1X#
1T#
1\#
0^#
1`#
0f#
1d#
1h#
0n#
1p#
1l#
1x#
1t#
0v#
1"$
1|#
0~#
01
13
05
07#
1/#
0'#
0t"
1p"
0l"
1P"
0L"
0U"
0'"
1/"
0!"
1k!
0c!
0[!
1?!
0:!
0B!
0#!
0t
1o
0>
0O
1R
0&
1(
0*
18#
00#
1(#
1u"
0q"
1m"
0Q"
1M"
1V"
1("
00"
1""
0l!
1d!
1\!
0@!
1;!
1C!
1$!
1u
0p
1?
1P
0S
#100000
0!
09
0:
#110000
1!
19
1:
1C#
0E#
1G#
1K#
0M#
1O#
1S#
0U#
1W#
0]#
1[#
1_#
0e#
1c#
1g#
1k#
0m#
1o#
1w#
1s#
0u#
0}#
1{#
1!$
02
14
06
0;#
13#
0+#
1{"
0y"
1r"
1i"
0n"
0C"
1?"
1I"
0N"
11"
0s!
0*"
1y!
1a!
0O!
0f!
1U!
0.!
1*!
0G!
14!
1~
0d
0x
1j
1K
0V
1\
0B
0%
1'
0)
1<#
04#
1,#
1z"
0s"
1o"
1D"
0@"
1O"
02"
1t!
1+"
0b!
1P!
1g!
1/!
0+!
1H!
1e
1y
0k
1W
0L
1C
1}"
1j"
1J"
1{!
1W!
16!
1!!
1]
0$#
0k"
0K"
0|!
0X!
07!
0"!
0^
#120000
0!
09
0:
#130000
1!
19
1:
1B#
0D#
1F#
0H#
1J#
0L#
1N#
0P#
1V#
0X#
1R#
0T#
0\#
1^#
0`#
1Z#
1f#
0d#
0h#
1b#
1n#
0p#
1j#
0l#
0x#
1r#
0t#
1v#
0"$
1z#
0|#
1~#
11
03
15
07
0?#
17#
0/#
1'#
0g"
1t"
0p"
1l"
0P"
1L"
0G"
1U"
1'"
0/"
1!"
0w!
0k!
1c!
1[!
0S!
0?!
1:!
02!
1B!
1#!
0|
1t
0o
1>
0Z
1O
0R
0$
1&
0(
1*
1@#
08#
10#
0(#
1h"
0u"
1q"
0m"
1Q"
0M"
1H"
0V"
0("
10"
0""
1x!
1l!
0d!
0\!
1T!
1@!
0;!
13!
0C!
0$!
1}
0u
1p
0?
1[
0P
1S
#140000
0!
09
0:
#150000
1!
19
1:
1A#
0C#
1E#
0G#
0K#
1M#
0O#
1I#
0S#
1U#
0W#
1Q#
1]#
0[#
0_#
1Y#
1e#
0c#
0g#
1a#
0k#
1m#
0o#
1i#
0w#
1q#
0s#
1u#
1y#
1}#
0{#
0!$
12
04
16
08
1;#
03#
1+#
1y"
0r"
1n"
1C"
0?"
1N"
01"
1s!
1*"
0a!
1O!
1f!
1.!
0*!
1G!
1d
1x
0j
0K
1V
1B
0#
1%
0'
1)
0<#
14#
0,#
0z"
1s"
0o"
0D"
1@"
0O"
12"
0t!
0+"
1b!
0P!
0g!
0/!
1+!
0H!
0e
0y
1k
0W
1L
0C
#160000
0!
09
0:
#170000
1!
19
1:
0B#
1D#
0F#
0J#
1L#
0N#
0V#
0R#
1T#
1\#
0^#
0Z#
0f#
1d#
0b#
0n#
0j#
1l#
0r#
1t#
0v#
0z#
1|#
0~#
13
05
17
1?#
07#
1/#
1g"
0t"
1p"
1P"
1G"
0U"
0'"
1/"
1w!
1k!
0c!
1S!
1?!
12!
0B!
1|
0t
1o
1Z
0O
1R
1$
0&
1(
0@#
18#
00#
0h"
1u"
0q"
0Q"
0H"
1V"
1("
00"
0x!
0l!
1d!
0T!
0@!
03!
1C!
0}
1u
0p
0[
1P
0S
#180000
0!
09
0:
#190000
1!
19
1:
0A#
1C#
0E#
1K#
0M#
0I#
1S#
0U#
0Q#
0]#
1[#
0Y#
0e#
1c#
0a#
1k#
0m#
0i#
0q#
1s#
0u#
0y#
0}#
1{#
14
06
18
0{"
0;#
13#
0y"
1r"
0i"
0C"
1?"
0I"
11"
0s!
0y!
1a!
0O!
0U!
0.!
1*!
04!
0~
0x
1j
0\
1K
0V
1#
0%
1'
1<#
04#
1z"
0s"
1D"
0@"
02"
1t!
0b!
1P!
1/!
0+!
1y
0k
1W
0L
0}"
0j"
0J"
0{!
0W!
06!
0!!
0]
1$#
1k"
1K"
1|!
1X!
17!
1"!
1^
#200000
0!
09
0:
#210000
1!
19
1:
1B#
0D#
1H#
1J#
0L#
1P#
1X#
1R#
0T#
0\#
1`#
1Z#
0d#
1h#
1b#
1p#
1j#
0l#
1x#
1r#
0t#
1"$
1z#
0|#
01
15
07
0?#
17#
0'#
0g"
1t"
0l"
0L"
0G"
1U"
1'"
0!"
0w!
1c!
0[!
0S!
0:!
02!
1B!
0#!
0|
1t
0>
0Z
1O
0$
1&
0*
1@#
08#
1(#
1h"
0u"
1m"
1M"
1H"
0V"
0("
1""
1x!
0d!
1\!
1T!
1;!
13!
0C!
1$!
1}
0u
1?
1[
0P
#220000
0!
09
0:
#230000
1!
19
1:
1A#
0C#
1G#
0K#
1O#
1I#
0S#
1W#
1Q#
0[#
1_#
1Y#
0c#
1g#
1a#
0k#
1o#
1i#
1w#
1q#
0s#
1y#
0{#
1!$
02
16
08
1;#
1"#
0~"
0+#
1w"
1y"
0W"
0n"
1R"
1C"
03"
0N"
1-"
0)"
1s!
0*"
1i!
0e!
1O!
0f!
1D!
0A!
1.!
0G!
1m
0d
1x
0q
1V
0Q
1E
0B
0#
1%
0)
1,#
1o"
1O"
1+"
1g!
1H!
1e
1C
0<#
0z"
0D"
0t!
0P!
0/!
0y
0W
#240000
0!
09
0:
#250000
1!
19
1:
0B#
1F#
0J#
1N#
1V#
0R#
1^#
0Z#
1f#
0b#
1n#
0j#
0r#
1v#
0z#
1~#
03
17
1?#
0/#
1g"
0p"
0P"
1G"
0/"
1w!
0k!
1S!
0?!
12!
1|
0o
1Z
0R
1$
0(
0@#
10#
0h"
1q"
1Q"
0H"
10"
0x!
1l!
0T!
1@!
03!
0}
1p
0[
1S
#260000
0!
09
0:
#270000
1!
19
1:
0A#
1E#
1M#
0I#
1U#
0Q#
1]#
0Y#
1e#
0a#
1m#
0i#
0q#
1u#
0y#
1}#
04
18
1{"
03#
0"#
1~"
0w"
0r"
1W"
1i"
0R"
0?"
13"
1I"
0-"
1)"
01"
1y!
0i!
1e!
0a!
1U!
0D!
1A!
0*!
14!
1~
1q
0m
0j
1\
1Q
0K
0E
1#
0'
14#
1s"
1@"
12"
1b!
1+!
1k
1L
1}"
1j"
1J"
1{!
1W!
16!
1!!
1]
0$#
0k"
0K"
0|!
0X!
07!
0"!
0^
#280000
0!
09
0:
#290000
1!
19
1:
1D#
0H#
1L#
0P#
0X#
1T#
1\#
0`#
1d#
0h#
0p#
1l#
0x#
1t#
0"$
1|#
11
05
07#
1'#
0t"
1l"
1L"
0U"
0'"
1!"
0c!
1[!
1:!
0B!
1#!
0t
1>
0O
0&
1*
18#
0(#
1u"
0m"
0M"
1V"
1("
0""
1d!
0\!
0;!
1C!
0$!
1u
0?
1P
#300000
0!
09
0:
#310000
1!
19
1:
1C#
0G#
1K#
0O#
1S#
0W#
1[#
0_#
1c#
0g#
1k#
0o#
0w#
1s#
1{#
0!$
12
06
0;#
1!#
0~"
1+#
0{"
1v"
0y"
0W"
0i"
1n"
1S"
0C"
03"
0I"
1N"
1,"
0)"
0s!
1*"
0y!
1h!
0e!
0O!
1f!
0U!
1E!
0A!
0.!
1G!
04!
0~
1d
0x
0q
1l
0V
0Q
1D
0\
1B
0%
1)
0,#
0o"
0O"
0+"
0g!
0H!
0e
0C
0}"
0j"
0J"
0{!
0W!
06!
0!!
0]
1<#
1z"
1D"
1t!
1P!
1/!
1y
1W
1$#
1k"
1K"
1|!
1X!
17!
1"!
1^
#320000
0!
09
0:
