processor/simulation/qsim/processor.msim.vcd
$comment
	File created using the following command:
		vcd file processor.msim.vcd -direction
$end
$date
	Thu Apr 12 15:51:19 2018
$end
$version
	ModelSim Version 10.5b
$end
$timescale
	1ps
$end

$scope module random32_vlg_vec_tst $end
$var reg 1 ! clock $end
$var reg 1 " reset $end
$var wire 1 # data [31] $end
$var wire 1 $ data [30] $end
$var wire 1 % data [29] $end
$var wire 1 & data [28] $end
$var wire 1 ' data [27] $end
$var wire 1 ( data [26] $end
$var wire 1 ) data [25] $end
$var wire 1 * data [24] $end
$var wire 1 + data [23] $end
$var wire 1 , data [22] $end
$var wire 1 - data [21] $end
$var wire 1 . data [20] $end
$var wire 1 / data [19] $end
$var wire 1 0 data [18] $end
$var wire 1 1 data [17] $end
$var wire 1 2 data [16] $end
$var wire 1 3 data [15] $end
$var wire 1 4 data [14] $end
$var wire 1 5 data [13] $end
$var wire 1 6 data [12] $end
$var wire 1 7 data [11] $end
$var wire 1 8 data [10] $end
$var wire 1 9 data [9] $end
$var wire 1 : data [8] $end
$var wire 1 ; data [7] $end
$var wire 1 < data [6] $end
$var wire 1 = data [5] $end
$var wire 1 > data [4] $end
$var wire 1 ? data [3] $end
$var wire 1 @ data [2] $end
$var wire 1 A data [1] $end
$var wire 1 B data [0] $end

$scope module i1 $end
$var wire 1 C gnd $end
$var wire 1 D vcc $end
$var wire 1 E unknown $end
$var tri1 1 F devclrn $end
$var tri1 1 G devpor $end
$var tri1 1 H devoe $end
$var wire 1 I data[0]~output_o $end
$var wire 1 J data[1]~output_o $end
$var wire 1 K data[2]~output_o $end
$var wire 1 L data[3]~output_o $end
$var wire 1 M data[4]~output_o $end
$var wire 1 N data[5]~output_o $end
$var wire 1 O data[6]~output_o $end
$var wire 1 P data[7]~output_o $end
$var wire 1 Q data[8]~output_o $end
$var wire 1 R data[9]~output_o $end
$var wire 1 S data[10]~output_o $end
$var wire 1 T data[11]~output_o $end
$var wire 1 U data[12]~output_o $end
$var wire 1 V data[13]~output_o $end
$var wire 1 W data[14]~output_o $end
$var wire 1 X data[15]~output_o $end
$var wire 1 Y data[16]~output_o $end
$var wire 1 Z data[17]~output_o $end
$var wire 1 [ data[18]~output_o $end
$var wire 1 \ data[19]~output_o $end
$var wire 1 ] data[20]~output_o $end
$var wire 1 ^ data[21]~output_o $end
$var wire 1 _ data[22]~output_o $end
$var wire 1 ` data[23]~output_o $end
$var wire 1 a data[24]~output_o $end
$var wire 1 b data[25]~output_o $end
$var wire 1 c data[26]~output_o $end
$var wire 1 d data[27]~output_o $end
$var wire 1 e data[28]~output_o $end
$var wire 1 f data[29]~output_o $end
$var wire 1 g data[30]~output_o $end
$var wire 1 h data[31]~output_o $end
$var wire 1 i clock~input_o $end
$var wire 1 j clock~inputclkctrl_outclk $end
$var wire 1 k data[1]~reg0feeder_combout $end
$var wire 1 l reset~input_o $end
$var wire 1 m reset~inputclkctrl_outclk $end
$var wire 1 n data[1]~reg0_q $end
$var wire 1 o data[2]~reg0feeder_combout $end
$var wire 1 p data[2]~reg0_q $end
$var wire 1 q data[3]~reg0feeder_combout $end
$var wire 1 r data[3]~reg0_q $end
$var wire 1 s data[4]~reg0feeder_combout $end
$var wire 1 t data[4]~reg0_q $end
$var wire 1 u data[5]~reg0feeder_combout $end
$var wire 1 v data[5]~reg0_q $end
$var wire 1 w data[6]~reg0feeder_combout $end
$var wire 1 x data[6]~reg0_q $end
$var wire 1 y data[7]~reg0feeder_combout $end
$var wire 1 z data[7]~reg0_q $end
$var wire 1 { data[8]~reg0feeder_combout $end
$var wire 1 | data[8]~reg0_q $end
$var wire 1 } data[9]~reg0feeder_combout $end
$var wire 1 ~ data[9]~reg0_q $end
$var wire 1 !! data[10]~reg0feeder_combout $end
$var wire 1 "! data[10]~reg0_q $end
$var wire 1 #! data[11]~reg0feeder_combout $end
$var wire 1 $! data[11]~reg0_q $end
$var wire 1 %! data[12]~reg0feeder_combout $end
$var wire 1 &! data[12]~reg0_q $end
$var wire 1 '! data[13]~reg0feeder_combout $end
$var wire 1 (! data[13]~reg0_q $end
$var wire 1 )! data[14]~reg0feeder_combout $end
$var wire 1 *! data[14]~reg0_q $end
$var wire 1 +! data[15]~reg0feeder_combout $end
$var wire 1 ,! data[15]~reg0_q $end
$var wire 1 -! data[16]~reg0feeder_combout $end
$var wire 1 .! data[16]~reg0_q $end
$var wire 1 /! data[17]~reg0feeder_combout $end
$var wire 1 0! data[17]~reg0_q $end
$var wire 1 1! data[18]~reg0feeder_combout $end
$var wire 1 2! data[18]~reg0_q $end
$var wire 1 3! data[19]~reg0feeder_combout $end
$var wire 1 4! data[19]~reg0_q $end
$var wire 1 5! data[20]~reg0feeder_combout $end
$var wire 1 6! data[20]~reg0_q $end
$var wire 1 7! data[21]~reg0feeder_combout $end
$var wire 1 8! data[21]~reg0_q $end
$var wire 1 9! data[22]~reg0feeder_combout $end
$var wire 1 :! data[22]~reg0_q $end
$var wire 1 ;! data[23]~reg0feeder_combout $end
$var wire 1 <! data[23]~reg0_q $end
$var wire 1 =! data[24]~1_combout $end
$var wire 1 >! data[24]~reg0_q $end
$var wire 1 ?! data[25]~reg0feeder_combout $end
$var wire 1 @! data[25]~reg0_q $end
$var wire 1 A! data[26]~reg0feeder_combout $end
$var wire 1 B! data[26]~reg0_q $end
$var wire 1 C! data[27]~reg0feeder_combout $end
$var wire 1 D! data[27]~reg0_q $end
$var wire 1 E! data[28]~reg0feeder_combout $end
$var wire 1 F! data[28]~reg0_q $end
$var wire 1 G! data[29]~reg0feeder_combout $end
$var wire 1 H! data[29]~reg0_q $end
$var wire 1 I! data[30]~reg0feeder_combout $end
$var wire 1 J! data[30]~reg0_q $end
$var wire 1 K! data[31]~reg0feeder_combout $end
$var wire 1 L! data[31]~reg0_q $end
$var wire 1 M! feedback~combout $end
$var wire 1 N! data[0]~reg0_q $end
$upscope $end
$upscope $end
$enddefinitions $end
#0
$dumpvars
0!
0"
1B
1A
1@
1?
1>
1=
1<
1;
1:
19
18
17
16
15
14
13
12
11
10
1/
1.
1-
1,
1+
0*
0)
0(
0'
0&
0%
0$
0#
0C
1D
xE
1F
1G
1H
1I
1J
1K
1L
1M
1N
1O
1P
1Q
1R
1S
1T
1U
1V
1W
1X
1Y
1Z
1[
1\
1]
1^
1_
1`
0a
0b
0c
0d
0e
0f
0g
0h
0i
0j
0k
0l
0m
0n
0o
0p
0q
0r
0s
0t
0u
0v
0w
0x
0y
0z
0{
0|
0}
0~
0!!
0"!
0#!
0$!
0%!
0&!
0'!
0(!
0)!
0*!
0+!
0,!
0-!
0.!
0/!
00!
01!
02!
03!
04!
05!
06!
07!
08!
09!
0:!
0;!
0<!
1=!
0>!
0?!
0@!
0A!
0B!
0C!
0D!
0E!
0F!
0G!
0H!
0I!
0J!
0K!
0L!
0M!
0N!
$end
#10000
1!
1i
1j
1>!
1a
1*
1?!
#20000
0!
0i
0j
#30000
1!
1i
1j
1@!
1b
1)
1A!
#40000
0!
0i
0j
#50000
1!
1i
1j
1B!
1c
1(
1C!
#60000
0!
0i
0j
#70000
1!
1i
1j
1D!
1d
1'
1E!
#80000
0!
0i
0j
#90000
1!
1i
1j
1F!
1e
1&
1G!
#100000
0!
0i
0j
#110000
1!
1i
1j
1H!
1f
1%
1I!
#120000
0!
0i
0j
#130000
1!
1i
1j
1J!
1g
1$
1K!
#140000
0!
0i
0j
#150000
1!
1i
1j
1L!
1h
1#
1M!
#160000
0!
0i
0j
#170000
1!
1i
1j
1N!
0I
0B
1k
#180000
0!
0i
0j
#190000
1!
1i
1j
1n
0J
0A
0M!
1o
#200000
0!
0i
0j
#210000
1!
1i
1j
0N!
1p
0K
1I
1B
0@
0k
1q
#220000
0!
0i
0j
#230000
1!
1i
1j
1r
0n
1J
0L
0?
1A
1s
1M!
0o
#240000
0!
0i
0j
#250000
1!
1i
1j
1N!
1t
0p
1K
0M
0I
0B
0>
1@
1k
1u
0q
#260000
0!
0i
0j
#270000
1!
1i
1j
1v
0r
1n
0J
1L
0N
0=
1?
0A
1w
0s
0M!
1o
#280000
0!
0i
0j
#290000
1!
1i
1j
0N!
1x
0t
1p
0K
1M
0O
1I
1B
0<
1>
0@
0k
1y
0u
1q
#300000
0!
0i
0j
#310000
1!
1i
1j
1z
0v
1r
0n
1J
0L
1N
0P
0;
1=
0?
1A
1{
0w
1s
1M!
0o
#320000
0!
0i
0j
#330000
1!
1i
1j
1N!
1|
0x
1t
0p
1K
0M
1O
0Q
0I
0B
0:
1<
0>
1@
1k
1}
0y
1u
0q
#340000
0!
0i
0j
#350000
1!
1i
1j
1~
0z
1v
0r
1n
0J
1L
0N
1P
0R
09
1;
0=
1?
0A
1!!
0{
1w
0s
0M!
1o
#360000
0!
0i
0j
#370000
1!
1i
1j
0N!
1"!
0|
1x
0t
1p
0K
1M
0O
1Q
0S
1I
1B
08
1:
0<
1>
0@
0k
1#!
0}
1y
0u
1q
#380000
0!
0i
0j
#390000
1!
1i
1j
1$!
0~
1z
0v
1r
0n
1J
0L
1N
0P
1R
0T
07
19
0;
1=
0?
1A
1%!
0!!
1{
0w
1s
1M!
0o
#400000
0!
0i
0j
#410000
1!
1i
1j
1N!
1&!
0"!
1|
0x
1t
0p
1K
0M
1O
0Q
1S
0U
0I
0B
06
18
0:
1<
0>
1@
1k
1'!
0#!
1}
0y
1u
0q
#420000
0!
0i
0j
#430000
1!
1i
1j
1(!
0$!
1~
0z
1v
0r
1n
0J
1L
0N
1P
0R
1T
0V
05
17
09
1;
0=
1?
0A
1)!
0%!
1!!
0{
1w
0s
0M!
1o
#440000
0!
0i
0j
#450000
1!
1i
1j
0N!
1*!
0&!
1"!
0|
1x
0t
1p
0K
1M
0O
1Q
0S
1U
0W
1I
1B
04
16
08
1:
0<
1>
0@
0k
1+!
0'!
1#!
0}
1y
0u
1q
#460000
0!
0i
0j
#470000
1!
1i
1j
1,!
0(!
1$!
0~
1z
0v
1r
0n
1J
0L
1N
0P
1R
0T
1V
0X
03
15
07
19
0;
1=
0?
1A
1-!
0)!
1%!
0!!
1{
0w
1s
1M!
0o
#480000
0!
0i
0j
#490000
1!
1i
1j
1N!
1.!
0*!
1&!
0"!
1|
0x
1t
0p
1K
0M
1O
0Q
1S
0U
1W
0Y
0I
0B
02
14
06
18
0:
1<
0>
1@
1k
1/!
0+!
1'!
0#!
1}
0y
1u
0q
