led_controller/simulation/qsim/led_controller.msim.vcd
$comment
	File created using the following command:
		vcd file led_controller.msim.vcd -direction
$end
$date
	Wed Apr 11 20:58:43 2018
$end
$version
	ModelSim Version 10.4d
$end
$timescale
	1ps
$end

$scope module led_vlg_vec_tst $end
$var reg 1 ! clock $end
$var reg 16 " code [15:0] $end
$var wire 1 # pin_g $end
$var wire 1 $ pin_r $end

$scope module i1 $end
$var wire 1 % gnd $end
$var wire 1 & vcc $end
$var wire 1 ' unknown $end
$var tri1 1 ( devclrn $end
$var tri1 1 ) devpor $end
$var tri1 1 * devoe $end
$var wire 1 + pin_r~output_o $end
$var wire 1 , pin_g~output_o $end
$var wire 1 - clock~input_o $end
$var wire 1 . clock~inputclkctrl_outclk $end
$var wire 1 / green_signal|count_mod|c_out[0]~21_combout $end
$var wire 1 0 green_signal|count_mod|c_out[1]~7_combout $end
$var wire 1 1 green_signal|count_mod|c_out[1]~8 $end
$var wire 1 2 green_signal|count_mod|c_out[2]~9_combout $end
$var wire 1 3 green_signal|count_mod|c_out[2]~10 $end
$var wire 1 4 green_signal|count_mod|c_out[3]~11_combout $end
$var wire 1 5 green_signal|count_mod|c_out[3]~12 $end
$var wire 1 6 green_signal|count_mod|c_out[4]~13_combout $end
$var wire 1 7 green_signal|count_mod|c_out[4]~14 $end
$var wire 1 8 green_signal|count_mod|c_out[5]~15_combout $end
$var wire 1 9 green_signal|count_mod|c_out[5]~16 $end
$var wire 1 : green_signal|count_mod|c_out[6]~17_combout $end
$var wire 1 ; green_signal|count_mod|c_out[6]~18 $end
$var wire 1 < green_signal|count_mod|c_out[7]~19_combout $end
$var wire 1 = code[15]~input_o $end
$var wire 1 > red[7]~feeder_combout $end
$var wire 1 ? code[14]~input_o $end
$var wire 1 @ code[13]~input_o $end
$var wire 1 A code[12]~input_o $end
$var wire 1 B code[11]~input_o $end
$var wire 1 C code[10]~input_o $end
$var wire 1 D code[9]~input_o $end
$var wire 1 E code[8]~input_o $end
$var wire 1 F red_signal|LessThan0~1_cout $end
$var wire 1 G red_signal|LessThan0~3_cout $end
$var wire 1 H red_signal|LessThan0~5_cout $end
$var wire 1 I red_signal|LessThan0~7_cout $end
$var wire 1 J red_signal|LessThan0~9_cout $end
$var wire 1 K red_signal|LessThan0~11_cout $end
$var wire 1 L red_signal|LessThan0~13_cout $end
$var wire 1 M red_signal|LessThan0~14_combout $end
$var wire 1 N red_signal|pwm_out~q $end
$var wire 1 O code[7]~input_o $end
$var wire 1 P green[7]~feeder_combout $end
$var wire 1 Q code[6]~input_o $end
$var wire 1 R code[5]~input_o $end
$var wire 1 S code[4]~input_o $end
$var wire 1 T code[3]~input_o $end
$var wire 1 U code[2]~input_o $end
$var wire 1 V code[1]~input_o $end
$var wire 1 W code[0]~input_o $end
$var wire 1 X green_signal|LessThan0~1_cout $end
$var wire 1 Y green_signal|LessThan0~3_cout $end
$var wire 1 Z green_signal|LessThan0~5_cout $end
$var wire 1 [ green_signal|LessThan0~7_cout $end
$var wire 1 \ green_signal|LessThan0~9_cout $end
$var wire 1 ] green_signal|LessThan0~11_cout $end
$var wire 1 ^ green_signal|LessThan0~13_cout $end
$var wire 1 _ green_signal|LessThan0~14_combout $end
$var wire 1 ` green_signal|pwm_out~q $end
$var wire 1 a green_signal|count_mod|c_out [7] $end
$var wire 1 b green_signal|count_mod|c_out [6] $end
$var wire 1 c green_signal|count_mod|c_out [5] $end
$var wire 1 d green_signal|count_mod|c_out [4] $end
$var wire 1 e green_signal|count_mod|c_out [3] $end
$var wire 1 f green_signal|count_mod|c_out [2] $end
$var wire 1 g green_signal|count_mod|c_out [1] $end
$var wire 1 h green_signal|count_mod|c_out [0] $end
$var wire 1 i red [7] $end
$var wire 1 j red [6] $end
$var wire 1 k red [5] $end
$var wire 1 l red [4] $end
$var wire 1 m red [3] $end
$var wire 1 n red [2] $end
$var wire 1 o red [1] $end
$var wire 1 p red [0] $end
$var wire 1 q green [7] $end
$var wire 1 r green [6] $end
$var wire 1 s green [5] $end
$var wire 1 t green [4] $end
$var wire 1 u green [3] $end
$var wire 1 v green [2] $end
$var wire 1 w green [1] $end
$var wire 1 x green [0] $end
$upscope $end
$upscope $end
$enddefinitions $end
#0
$dumpvars
0!
b11111111 "
0#
0$
0%
1&
x'
1(
1)
1*
0+
0,
0-
0.
1/
00
01
02
13
04
05
06
17
08
09
0:
1;
0<
0=
0>
0?
0@
0A
0B
0C
0D
0E
0F
1G
0H
1I
0J
1K
0L
0M
0N
1O
1P
1Q
1R
1S
1T
1U
1V
1W
0X
1Y
0Z
1[
0\
1]
0^
0_
0`
0h
0g
0f
0e
0d
0c
0b
0a
0p
0o
0n
0m
0l
0k
0j
0i
0x
0w
0v
0u
0t
0s
0r
0q
$end
#1000
1!
1-
1.
1x
1w
1v
1u
1t
1s
1r
1q
1h
0Y
1Z
0[
1\
0]
1^
1_
10
0/
#2000
0!
0-
0.
#3000
1!
1-
1.
1g
0h
1`
1,
1Y
1X
1#
1/
0Y
#4000
0!
0-
0.
#5000
1!
1-
1.
1h
0X
11
00
0/
1Y
12
#6000
0!
0-
0.
#7000
1!
1-
1.
1f
0g
0h
0Z
03
0Y
01
1X
02
1/
1Z
13
14
12
04
#8000
0!
0-
0.
#9000
1!
1-
1.
1h
0X
10
0/
#10000
0!
0-
0.
#11000
1!
1-
1.
1g
0h
1Y
1X
1/
0Z
0Y
1Z
#12000
0!
0-
0.
#13000
1!
1-
1.
1h
0X
11
00
0/
1Y
03
02
0Z
14
#14000
0!
0-
0.
#15000
1!
1-
1.
1e
0f
0g
0h
1[
15
1Z
13
0Y
01
1X
04
12
1/
0[
05
16
14
02
06
#16000
0!
0-
0.
#17000
1!
1-
1.
1h
0X
10
0/
#18000
0!
0-
0.
#19000
1!
1-
1.
1g
0h
1Y
1X
1/
0Y
#20000
0!
0-
0.
#21000
1!
1-
1.
1h
0X
11
00
0/
1Y
12
#22000
0!
0-
0.
#23000
1!
1-
1.
1f
0g
0h
0Z
03
0Y
01
1X
02
1/
1[
15
1Z
13
04
12
0[
05
16
14
06
#24000
0!
0-
0.
#25000
1!
1-
1.
1h
0X
10
0/
#26000
0!
0-
0.
#27000
1!
1-
1.
1g
0h
1Y
1X
1/
0Z
0Y
1[
1Z
0[
#28000
0!
0-
0.
#29000
1!
1-
1.
1h
0X
11
00
0/
1Y
03
02
0Z
15
04
1[
16
#30000
0!
0-
0.
#31000
1!
1-
1.
1d
0e
0f
0g
0h
0\
07
0[
05
1Z
13
0Y
01
1X
06
14
12
1/
1\
17
18
16
04
02
08
#32000
0!
0-
0.
#33000
1!
1-
1.
1h
0X
10
0/
#34000
0!
0-
0.
#35000
1!
1-
1.
1g
0h
1Y
1X
1/
0Y
#36000
0!
0-
0.
#37000
1!
1-
1.
1h
0X
11
00
0/
1Y
12
#38000
0!
0-
0.
#39000
1!
1-
1.
1f
0g
0h
0Z
03
0Y
01
1X
02
1/
1Z
13
14
12
04
#40000
0!
0-
0.
#41000
1!
1-
1.
1h
0X
10
0/
#42000
0!
0-
0.
#43000
1!
1-
1.
1g
0h
1Y
1X
1/
0Z
0Y
1Z
#44000
0!
0-
0.
#45000
1!
1-
1.
1h
0X
11
00
0/
1Y
03
02
0Z
14
#46000
0!
0-
0.
#47000
1!
1-
1.
1e
0f
0g
0h
1[
15
1Z
13
0Y
01
1X
04
12
1/
0\
07
0[
05
06
14
02
1\
17
18
16
08
#48000
0!
0-
0.
#49000
1!
1-
1.
1h
0X
10
0/
#50000
0!
0-
0.
#51000
1!
1-
1.
1g
0h
1Y
1X
1/
0Y
#52000
0!
0-
0.
#53000
1!
1-
1.
1h
0X
11
00
0/
1Y
12
#54000
0!
0-
0.
#55000
1!
1-
1.
1f
0g
0h
0Z
03
0Y
01
1X
02
1/
1[
15
1Z
13
04
12
0\
07
0[
05
06
14
1\
17
18
16
08
#56000
0!
0-
0.
#57000
1!
1-
1.
1h
0X
10
0/
#58000
0!
0-
0.
#59000
1!
1-
1.
1g
0h
1Y
1X
1/
0Z
0Y
1[
1Z
0\
0[
1\
#60000
0!
0-
0.
#61000
1!
1-
1.
1h
0X
11
00
0/
1Y
03
02
0Z
15
04
1[
07
06
0\
18
#62000
0!
0-
0.
#63000
1!
1-
1.
1c
0d
0e
0f
0g
0h
1]
19
1\
17
0[
05
1Z
13
0Y
01
1X
08
16
14
12
1/
0]
09
1:
18
06
04
02
0:
#64000
0!
0-
0.
#65000
1!
1-
1.
1h
0X
10
0/
#66000
0!
0-
0.
#67000
1!
1-
1.
1g
0h
1Y
1X
1/
0Y
#68000
0!
0-
0.
#69000
1!
1-
1.
1h
0X
11
00
0/
1Y
12
#70000
0!
0-
0.
#71000
1!
1-
1.
1f
0g
0h
0Z
03
0Y
01
1X
02
1/
1Z
13
14
12
04
#72000
0!
0-
0.
#73000
1!
1-
1.
1h
0X
10
0/
#74000
0!
0-
0.
#75000
1!
1-
1.
1g
0h
1Y
1X
1/
0Z
0Y
1Z
#76000
0!
0-
0.
#77000
1!
1-
1.
1h
0X
11
00
0/
1Y
03
02
0Z
14
#78000
0!
0-
0.
#79000
1!
1-
1.
1e
0f
0g
0h
1[
15
1Z
13
0Y
01
1X
04
12
1/
0[
05
16
14
02
06
#80000
0!
0-
0.
#81000
1!
1-
1.
1h
0X
10
0/
#82000
0!
0-
0.
#83000
1!
1-
1.
1g
0h
1Y
1X
1/
0Y
#84000
0!
0-
0.
#85000
1!
1-
1.
1h
0X
11
00
0/
1Y
12
#86000
0!
0-
0.
#87000
1!
1-
1.
1f
0g
0h
0Z
03
0Y
01
1X
02
1/
1[
15
1Z
13
04
12
0[
05
16
14
06
#88000
0!
0-
0.
#89000
1!
1-
1.
1h
0X
10
0/
#90000
0!
0-
0.
#91000
1!
1-
1.
1g
0h
1Y
1X
1/
0Z
0Y
1[
1Z
0[
#92000
0!
0-
0.
#93000
1!
1-
1.
1h
0X
11
00
0/
1Y
03
02
0Z
15
04
1[
16
#94000
0!
0-
0.
#95000
1!
1-
1.
1d
0e
0f
0g
0h
0\
07
0[
05
1Z
13
0Y
01
1X
06
14
12
1/
1]
19
1\
17
08
16
04
02
0]
09
1:
18
0:
#96000
0!
0-
0.
#97000
1!
1-
1.
1h
0X
10
0/
#98000
0!
0-
0.
#99000
1!
1-
1.
1g
0h
1Y
1X
1/
0Y
#100000
0!
0-
0.
#101000
1!
1-
1.
1h
0X
11
00
0/
1Y
12
#102000
0!
0-
0.
#103000
1!
1-
1.
1f
0g
0h
0Z
03
0Y
01
1X
02
1/
1Z
13
14
12
04
#104000
0!
0-
0.
#105000
1!
1-
1.
1h
0X
10
0/
#106000
0!
0-
0.
#107000
1!
1-
1.
1g
0h
1Y
1X
1/
0Z
0Y
1Z
#108000
0!
0-
0.
#109000
1!
1-
1.
1h
0X
11
00
0/
1Y
03
02
0Z
14
#110000
0!
0-
0.
#111000
1!
1-
1.
1e
0f
0g
0h
1[
15
1Z
13
0Y
01
1X
04
12
1/
0\
07
0[
05
06
14
02
1]
19
1\
17
08
16
0]
09
1:
18
0:
#112000
0!
0-
0.
#113000
1!
1-
1.
1h
0X
10
0/
#114000
0!
0-
0.
#115000
1!
1-
1.
1g
0h
1Y
1X
1/
0Y
#116000
0!
0-
0.
#117000
1!
1-
1.
1h
0X
11
00
0/
1Y
12
#118000
0!
0-
0.
#119000
1!
1-
1.
1f
0g
0h
0Z
03
0Y
01
1X
02
1/
1[
15
1Z
13
04
12
0\
07
0[
05
06
14
1]
19
1\
17
08
16
0]
09
1:
18
0:
#120000
0!
0-
0.
#121000
1!
1-
1.
1h
0X
10
0/
#122000
0!
0-
0.
#123000
1!
1-
1.
1g
0h
1Y
1X
1/
0Z
0Y
1[
1Z
0\
0[
1]
1\
0]
#124000
0!
0-
0.
#125000
1!
1-
1.
1h
0X
11
00
0/
1Y
03
02
0Z
15
04
1[
07
06
0\
19
08
1]
1:
#126000
0!
0-
0.
#127000
1!
1-
1.
1b
0c
0d
0e
0f
0g
0h
0^
0;
0]
09
1\
17
0[
05
1Z
13
0Y
01
1X
0:
18
16
14
12
1/
1^
1;
1<
1:
08
06
04
02
0<
#128000
0!
0-
0.
#129000
1!
1-
1.
1h
0X
10
0/
#130000
0!
0-
0.
#131000
1!
1-
1.
1g
0h
1Y
1X
1/
0Y
#132000
0!
0-
0.
#133000
1!
1-
1.
1h
0X
11
00
0/
1Y
12
#134000
0!
0-
0.
#135000
1!
1-
1.
1f
0g
0h
0Z
03
0Y
01
1X
02
1/
1Z
13
14
12
04
#136000
0!
0-
0.
#137000
1!
1-
1.
1h
0X
10
0/
#138000
0!
0-
0.
#139000
1!
1-
1.
1g
0h
1Y
1X
1/
0Z
0Y
1Z
#140000
0!
0-
0.
#141000
1!
1-
1.
1h
0X
11
00
0/
1Y
03
02
0Z
14
#142000
0!
0-
0.
#143000
1!
1-
1.
1e
0f
0g
0h
1[
15
1Z
13
0Y
01
1X
04
12
1/
0[
05
16
14
02
06
#144000
0!
0-
0.
#145000
1!
1-
1.
1h
0X
10
0/
#146000
0!
0-
0.
#147000
1!
1-
1.
1g
0h
1Y
1X
1/
0Y
#148000
0!
0-
0.
#149000
1!
1-
1.
1h
0X
11
00
0/
1Y
12
#150000
0!
0-
0.
#151000
1!
1-
1.
1f
0g
0h
0Z
03
0Y
01
1X
02
1/
1[
15
1Z
13
04
12
0[
05
16
14
06
#152000
0!
0-
0.
#153000
1!
1-
1.
1h
0X
10
0/
#154000
0!
0-
0.
#155000
1!
1-
1.
1g
0h
1Y
1X
1/
0Z
0Y
1[
1Z
0[
#156000
0!
0-
0.
#157000
1!
1-
1.
1h
0X
11
00
0/
1Y
03
02
0Z
15
04
1[
16
#158000
0!
0-
0.
#159000
1!
1-
1.
1d
0e
0f
0g
0h
0\
07
0[
05
1Z
13
0Y
01
1X
06
14
12
1/
1\
17
18
16
04
02
08
#160000
0!
0-
0.
#161000
1!
1-
1.
1h
0X
10
0/
#162000
0!
0-
0.
#163000
1!
1-
1.
1g
0h
1Y
1X
1/
0Y
#164000
0!
0-
0.
#165000
1!
1-
1.
1h
0X
11
00
0/
1Y
12
#166000
0!
0-
0.
#167000
1!
1-
1.
1f
0g
0h
0Z
03
0Y
01
1X
02
1/
1Z
13
14
12
04
#168000
0!
0-
0.
#169000
1!
1-
1.
1h
0X
10
0/
#170000
0!
0-
0.
#171000
1!
1-
1.
1g
0h
1Y
1X
1/
0Z
0Y
1Z
#172000
0!
0-
0.
#173000
1!
1-
1.
1h
0X
11
00
0/
1Y
03
02
0Z
14
#174000
0!
0-
0.
#175000
1!
1-
1.
1e
0f
0g
0h
1[
15
1Z
13
0Y
01
1X
04
12
1/
0\
07
0[
05
06
14
02
1\
17
18
16
08
#176000
0!
0-
0.
#177000
1!
1-
1.
1h
0X
10
0/
#178000
0!
0-
0.
#179000
1!
1-
1.
1g
0h
1Y
1X
1/
0Y
#180000
0!
0-
0.
#181000
1!
1-
1.
1h
0X
11
00
0/
1Y
12
#182000
0!
0-
0.
#183000
1!
1-
1.
1f
0g
0h
0Z
03
0Y
01
1X
02
1/
1[
15
1Z
13
04
12
0\
07
0[
05
06
14
1\
17
18
16
08
#184000
0!
0-
0.
#185000
1!
1-
1.
1h
0X
10
0/
#186000
0!
0-
0.
#187000
1!
1-
1.
1g
0h
1Y
1X
1/
0Z
0Y
1[
1Z
0\
0[
1\
#188000
0!
0-
0.
#189000
1!
1-
1.
1h
0X
11
00
0/
1Y
03
02
0Z
15
04
1[
07
06
0\
18
#190000
0!
0-
0.
#191000
1!
1-
1.
1c
0d
0e
0f
0g
0h
1]
19
1\
17
0[
05
1Z
13
0Y
01
1X
08
16
14
12
1/
0^
0;
0]
09
0:
18
06
04
02
1^
1;
1<
1:
0<
#192000
0!
0-
0.
#193000
1!
1-
1.
1h
0X
10
0/
#194000
0!
0-
0.
#195000
1!
1-
1.
1g
0h
1Y
1X
1/
0Y
#196000
0!
0-
0.
#197000
1!
1-
1.
1h
0X
11
00
0/
1Y
12
#198000
0!
0-
0.
#199000
1!
1-
1.
1f
0g
0h
0Z
03
0Y
01
1X
02
1/
1Z
13
14
12
04
#200000
0!
0-
0.
#201000
1!
1-
1.
1h
0X
10
0/
#202000
0!
0-
0.
#203000
1!
1-
1.
1g
0h
1Y
1X
1/
0Z
0Y
1Z
#204000
0!
0-
0.
#205000
1!
1-
1.
1h
0X
11
00
0/
1Y
03
02
0Z
14
#206000
0!
0-
0.
#207000
1!
1-
1.
1e
0f
0g
0h
1[
15
1Z
13
0Y
01
1X
04
12
1/
0[
05
16
14
02
06
#208000
0!
0-
0.
#209000
1!
1-
1.
1h
0X
10
0/
#210000
0!
0-
0.
#211000
1!
1-
1.
1g
0h
1Y
1X
1/
0Y
#212000
0!
0-
0.
#213000
1!
1-
1.
1h
0X
11
00
0/
1Y
12
#214000
0!
0-
0.
#215000
1!
1-
1.
1f
0g
0h
0Z
03
0Y
01
1X
02
1/
1[
15
1Z
13
04
12
0[
05
16
14
06
#216000
0!
0-
0.
#217000
1!
1-
1.
1h
0X
10
0/
#218000
0!
0-
0.
#219000
1!
1-
1.
1g
0h
1Y
1X
1/
0Z
0Y
1[
1Z
0[
#220000
0!
0-
0.
#221000
1!
1-
1.
1h
0X
11
00
0/
1Y
03
02
0Z
15
04
1[
16
#222000
0!
0-
0.
#223000
1!
1-
1.
1d
0e
0f
0g
0h
0\
07
0[
05
1Z
13
0Y
01
1X
06
14
12
1/
1]
19
1\
17
08
16
04
02
0^
0;
0]
09
0:
18
1^
1;
1<
1:
0<
#224000
0!
0-
0.
#225000
1!
1-
1.
1h
0X
10
0/
#226000
0!
0-
0.
#227000
1!
1-
1.
1g
0h
1Y
1X
1/
0Y
#228000
0!
0-
0.
#229000
1!
1-
1.
1h
0X
11
00
0/
1Y
12
#230000
0!
0-
0.
#231000
1!
1-
1.
1f
0g
0h
0Z
03
0Y
01
1X
02
1/
1Z
13
14
12
04
#232000
0!
0-
0.
#233000
1!
1-
1.
1h
0X
10
0/
#234000
0!
0-
0.
#235000
1!
1-
1.
1g
0h
1Y
1X
1/
0Z
0Y
1Z
#236000
0!
0-
0.
#237000
1!
1-
1.
1h
0X
11
00
0/
1Y
03
02
0Z
14
#238000
0!
0-
0.
#239000
1!
1-
1.
1e
0f
0g
0h
1[
15
1Z
13
0Y
01
1X
04
12
1/
0\
07
0[
05
06
14
02
1]
19
1\
17
08
16
0^
0;
0]
09
0:
18
1^
1;
1<
1:
0<
#240000
0!
0-
0.
#241000
1!
1-
1.
1h
0X
10
0/
#242000
0!
0-
0.
#243000
1!
1-
1.
1g
0h
1Y
1X
1/
0Y
#244000
0!
0-
0.
#245000
1!
1-
1.
1h
0X
11
00
0/
1Y
12
#246000
0!
0-
0.
#247000
1!
1-
1.
1f
0g
0h
0Z
03
0Y
01
1X
02
1/
1[
15
1Z
13
04
12
0\
07
0[
05
06
14
1]
19
1\
17
08
16
0^
0;
0]
09
0:
18
1^
1;
1<
1:
0<
#248000
0!
0-
0.
#249000
1!
1-
1.
1h
0X
10
0/
#250000
0!
0-
0.
#251000
1!
1-
1.
1g
0h
1Y
1X
1/
0Z
0Y
1[
1Z
0\
0[
1]
1\
0^
0]
1^
#252000
0!
0-
0.
#253000
1!
1-
1.
1h
0X
11
00
0/
1Y
03
02
0Z
15
04
1[
07
06
0\
19
08
1]
0;
0:
0^
1<
#254000
0!
0-
0.
#255000
1!
1-
1.
1a
0b
0c
0d
0e
0f
0g
0h
1^
1;
0]
09
1\
17
0[
05
1Z
13
0Y
01
1X
0_
0<
1:
18
16
14
12
1/
1_
1<
0:
08
06
04
02
#256000
0!
0-
0.
#257000
1!
1-
1.
1h
0X
10
0/
#258000
0!
0-
0.
#259000
1!
1-
1.
1g
0h
1Y
1X
1/
0Y
#260000
0!
0-
0.
#261000
1!
1-
1.
1h
0X
11
00
0/
1Y
12
#262000
0!
0-
0.
#263000
1!
1-
1.
1f
0g
0h
0Z
03
0Y
01
1X
02
1/
1Z
13
14
12
04
#264000
0!
0-
0.
#265000
1!
1-
1.
1h
0X
10
0/
#266000
0!
0-
0.
#267000
1!
1-
1.
1g
0h
1Y
1X
1/
0Z
0Y
1Z
#268000
0!
0-
0.
#269000
1!
1-
1.
1h
0X
11
00
0/
1Y
03
02
0Z
14
#270000
0!
0-
0.
#271000
1!
1-
1.
1e
0f
0g
0h
1[
15
1Z
13
0Y
01
1X
04
12
1/
0[
05
16
14
02
06
#272000
0!
0-
0.
#273000
1!
1-
1.
1h
0X
10
0/
#274000
0!
0-
0.
#275000
1!
1-
1.
1g
0h
1Y
1X
1/
0Y
#276000
0!
0-
0.
#277000
1!
1-
1.
1h
0X
11
00
0/
1Y
12
#278000
0!
0-
0.
#279000
1!
1-
1.
1f
0g
0h
0Z
03
0Y
01
1X
02
1/
1[
15
1Z
13
04
12
0[
05
16
14
06
#280000
0!
0-
0.
#281000
1!
1-
1.
1h
0X
10
0/
#282000
0!
0-
0.
#283000
1!
1-
1.
1g
0h
1Y
1X
1/
0Z
0Y
1[
1Z
0[
#284000
0!
0-
0.
#285000
1!
1-
1.
1h
0X
11
00
0/
1Y
03
02
0Z
15
04
1[
16
#286000
0!
0-
0.
#287000
1!
1-
1.
1d
0e
0f
0g
0h
0\
07
0[
05
1Z
13
0Y
01
1X
06
14
12
1/
1\
17
18
16
04
02
08
#288000
0!
0-
0.
#289000
1!
1-
1.
1h
0X
10
0/
#290000
0!
0-
0.
#291000
1!
1-
1.
1g
0h
1Y
1X
1/
0Y
#292000
0!
0-
0.
#293000
1!
1-
1.
1h
0X
11
00
0/
1Y
12
#294000
0!
0-
0.
#295000
1!
1-
1.
1f
0g
0h
0Z
03
0Y
01
1X
02
1/
1Z
13
14
12
04
#296000
0!
0-
0.
#297000
1!
1-
1.
1h
0X
10
0/
#298000
0!
0-
0.
#299000
1!
1-
1.
1g
0h
1Y
1X
1/
0Z
0Y
1Z
#300000
0!
0-
0.
#301000
1!
1-
1.
1h
0X
11
00
0/
1Y
03
02
0Z
14
#302000
0!
0-
0.
#303000
1!
1-
1.
1e
0f
0g
0h
1[
15
1Z
13
0Y
01
1X
04
12
1/
0\
07
0[
05
06
14
02
1\
17
18
16
08
#304000
0!
0-
0.
#305000
1!
1-
1.
1h
0X
10
0/
#306000
0!
0-
0.
#307000
1!
1-
1.
1g
0h
1Y
1X
1/
0Y
#308000
0!
0-
0.
#309000
1!
1-
1.
1h
0X
11
00
0/
1Y
12
#310000
0!
0-
0.
#311000
1!
1-
1.
1f
0g
0h
0Z
03
0Y
01
1X
02
1/
1[
15
1Z
13
04
12
0\
07
0[
05
06
14
1\
17
18
16
08
#312000
0!
0-
0.
#313000
1!
1-
1.
1h
0X
10
0/
#314000
0!
0-
0.
#315000
1!
1-
1.
1g
0h
1Y
1X
1/
0Z
0Y
1[
1Z
0\
0[
1\
#316000
0!
0-
0.
#317000
1!
1-
1.
1h
0X
11
00
0/
1Y
03
02
0Z
15
04
1[
07
06
0\
18
#318000
0!
0-
0.
#319000
1!
1-
1.
1c
0d
0e
0f
0g
0h
1]
19
1\
17
0[
05
1Z
13
0Y
01
1X
08
16
14
12
1/
0]
09
1:
18
06
04
02
0:
#320000
0!
0-
0.
#321000
1!
1-
1.
1h
0X
10
0/
#322000
0!
0-
0.
#323000
1!
1-
1.
1g
0h
1Y
1X
1/
0Y
#324000
0!
0-
0.
#325000
1!
1-
1.
1h
0X
11
00
0/
1Y
12
#326000
0!
0-
0.
#327000
1!
1-
1.
1f
0g
0h
0Z
03
0Y
01
1X
02
1/
1Z
13
14
12
04
#328000
0!
0-
0.
#329000
1!
1-
1.
1h
0X
10
0/
#330000
0!
0-
0.
#331000
1!
1-
1.
1g
0h
1Y
1X
1/
0Z
0Y
1Z
#332000
0!
0-
0.
#333000
1!
1-
1.
1h
0X
11
00
0/
1Y
03
02
0Z
14
#334000
0!
0-
0.
#335000
1!
1-
1.
1e
0f
0g
0h
1[
15
1Z
13
0Y
01
1X
04
12
1/
0[
05
16
14
02
06
#336000
0!
0-
0.
#337000
1!
1-
1.
1h
0X
10
0/
#338000
0!
0-
0.
#339000
1!
1-
1.
1g
0h
1Y
1X
1/
0Y
#340000
0!
0-
0.
#341000
1!
1-
1.
1h
0X
11
00
0/
1Y
12
#342000
0!
0-
0.
#343000
1!
1-
1.
1f
0g
0h
0Z
03
0Y
01
1X
02
1/
1[
15
1Z
13
04
12
0[
05
16
14
06
#344000
0!
0-
0.
#345000
1!
1-
1.
1h
0X
10
0/
#346000
0!
0-
0.
#347000
1!
1-
1.
1g
0h
1Y
1X
1/
0Z
0Y
1[
1Z
0[
#348000
0!
0-
0.
#349000
1!
1-
1.
1h
0X
11
00
0/
1Y
03
02
0Z
15
04
1[
16
#350000
0!
0-
0.
#351000
1!
1-
1.
1d
0e
0f
0g
0h
0\
07
0[
05
1Z
13
0Y
01
1X
06
14
12
1/
1]
19
1\
17
08
16
04
02
0]
09
1:
18
0:
#352000
0!
0-
0.
#353000
1!
1-
1.
1h
0X
10
0/
#354000
0!
0-
0.
#355000
1!
1-
1.
1g
0h
1Y
1X
1/
0Y
#356000
0!
0-
0.
#357000
1!
1-
1.
1h
0X
11
00
0/
1Y
12
#358000
0!
0-
0.
#359000
1!
1-
1.
1f
0g
0h
0Z
03
0Y
01
1X
02
1/
1Z
13
14
12
04
#360000
0!
0-
0.
#361000
1!
1-
1.
1h
0X
10
0/
#362000
0!
0-
0.
#363000
1!
1-
1.
1g
0h
1Y
1X
1/
0Z
0Y
1Z
#364000
0!
0-
0.
#365000
1!
1-
1.
1h
0X
11
00
0/
1Y
03
02
0Z
14
#366000
0!
0-
0.
#367000
1!
1-
1.
1e
0f
0g
0h
1[
15
1Z
13
0Y
01
1X
04
12
1/
0\
07
0[
05
06
14
02
1]
19
1\
17
08
16
0]
09
1:
18
0:
#368000
0!
0-
0.
#369000
1!
1-
1.
1h
0X
10
0/
#370000
0!
0-
0.
#371000
1!
1-
1.
1g
0h
1Y
1X
1/
0Y
#372000
0!
0-
0.
#373000
1!
1-
1.
1h
0X
11
00
0/
1Y
12
#374000
0!
0-
0.
#375000
1!
1-
1.
1f
0g
0h
0Z
03
0Y
01
1X
02
1/
1[
15
1Z
13
04
12
0\
07
0[
05
06
14
1]
19
1\
17
08
16
0]
09
1:
18
0:
#376000
0!
0-
0.
#377000
1!
1-
1.
1h
0X
10
0/
#378000
0!
0-
0.
#379000
1!
1-
1.
1g
0h
1Y
1X
1/
0Z
0Y
1[
1Z
0\
0[
1]
1\
0]
#380000
0!
0-
0.
#381000
1!
1-
1.
1h
0X
11
00
0/
1Y
03
02
0Z
15
04
1[
07
06
0\
19
08
1]
1:
#382000
0!
0-
0.
#383000
1!
1-
1.
1b
0c
0d
0e
0f
0g
0h
0^
0;
0]
09
1\
17
0[
05
1Z
13
0Y
01
1X
0:
18
16
14
12
1/
1^
1;
0_
0<
1:
08
06
04
02
1_
1<
#384000
0!
0-
0.
#385000
1!
1-
1.
1h
0X
10
0/
#386000
0!
0-
0.
#387000
1!
1-
1.
1g
0h
1Y
1X
1/
0Y
#388000
0!
0-
0.
#389000
1!
1-
1.
1h
0X
11
00
0/
1Y
12
#390000
0!
0-
0.
#391000
1!
1-
1.
1f
0g
0h
0Z
03
0Y
01
1X
02
1/
1Z
13
14
12
04
#392000
0!
0-
0.
#393000
1!
1-
1.
1h
0X
10
0/
#394000
0!
0-
0.
#395000
1!
1-
1.
1g
0h
1Y
1X
1/
0Z
0Y
1Z
#396000
0!
0-
0.
#397000
1!
1-
1.
1h
0X
11
00
0/
1Y
03
02
0Z
14
#398000
0!
0-
0.
#399000
1!
1-
1.
1e
0f
0g
0h
1[
15
1Z
13
0Y
01
1X
04
12
1/
0[
05
16
14
02
06
#400000
0!
0-
0.
#401000
1!
1-
1.
1h
0X
10
0/
#402000
0!
0-
0.
#403000
1!
1-
1.
1g
0h
1Y
1X
1/
0Y
#404000
0!
0-
0.
#405000
1!
1-
1.
1h
0X
11
00
0/
1Y
12
#406000
0!
0-
0.
#407000
1!
1-
1.
1f
0g
0h
0Z
03
0Y
01
1X
02
1/
1[
15
1Z
13
04
12
0[
05
16
14
06
#408000
0!
0-
0.
#409000
1!
1-
1.
1h
0X
10
0/
#410000
0!
0-
0.
#411000
1!
1-
1.
1g
0h
1Y
1X
1/
0Z
0Y
1[
1Z
0[
#412000
0!
0-
0.
#413000
1!
1-
1.
1h
0X
11
00
0/
1Y
03
02
0Z
15
04
1[
16
#414000
0!
0-
0.
#415000
1!
1-
1.
1d
0e
0f
0g
0h
0\
07
0[
05
1Z
13
0Y
01
1X
06
14
12
1/
1\
17
18
16
04
02
08
#416000
0!
0-
0.
#417000
1!
1-
1.
1h
0X
10
0/
#418000
0!
0-
0.
#419000
1!
1-
1.
1g
0h
1Y
1X
1/
0Y
#420000
0!
0-
0.
#421000
1!
1-
1.
1h
0X
11
00
0/
1Y
12
#422000
0!
0-
0.
#423000
1!
1-
1.
1f
0g
0h
0Z
03
0Y
01
1X
02
1/
1Z
13
14
12
04
#424000
0!
0-
0.
#425000
1!
1-
1.
1h
0X
10
0/
#426000
0!
0-
0.
#427000
1!
1-
1.
1g
0h
1Y
1X
1/
0Z
0Y
1Z
#428000
0!
0-
0.
#429000
1!
1-
1.
1h
0X
11
00
0/
1Y
03
02
0Z
14
#430000
0!
0-
0.
#431000
1!
1-
1.
1e
0f
0g
0h
1[
15
1Z
13
0Y
01
1X
04
12
1/
0\
07
0[
05
06
14
02
1\
17
18
16
08
#432000
0!
0-
0.
#433000
1!
1-
1.
1h
0X
10
0/
#434000
0!
0-
0.
#435000
1!
1-
1.
1g
0h
1Y
1X
1/
0Y
#436000
0!
0-
0.
