led_controller/simulation/qsim/led_controller.msim.vcd
$comment
	File created using the following command:
		vcd file led_controller.msim.vcd -direction
$end
$date
	Wed Apr 11 19:36:09 2018
$end
$version
	ModelSim Version 10.4d
$end
$timescale
	1ps
$end

$scope module led_pwm_vlg_vec_tst $end
$var reg 1 ! clk $end
$var reg 8 " pwm_codeword [7:0] $end
$var wire 1 # pwm_out $end

$scope module i1 $end
$var wire 1 $ gnd $end
$var wire 1 % vcc $end
$var wire 1 & unknown $end
$var tri1 1 ' devclrn $end
$var tri1 1 ( devpor $end
$var tri1 1 ) devoe $end
$var wire 1 * pwm_out~output_o $end
$var wire 1 + clk~input_o $end
$var wire 1 , clk~inputclkctrl_outclk $end
$var wire 1 - count_mod|c_out[0]~21_combout $end
$var wire 1 . count_mod|c_out[1]~7_combout $end
$var wire 1 / count_mod|c_out[1]~8 $end
$var wire 1 0 count_mod|c_out[2]~9_combout $end
$var wire 1 1 count_mod|c_out[2]~10 $end
$var wire 1 2 count_mod|c_out[3]~11_combout $end
$var wire 1 3 count_mod|c_out[3]~12 $end
$var wire 1 4 count_mod|c_out[4]~13_combout $end
$var wire 1 5 count_mod|c_out[4]~14 $end
$var wire 1 6 count_mod|c_out[5]~15_combout $end
$var wire 1 7 count_mod|c_out[5]~16 $end
$var wire 1 8 count_mod|c_out[6]~17_combout $end
$var wire 1 9 count_mod|c_out[6]~18 $end
$var wire 1 : count_mod|c_out[7]~19_combout $end
$var wire 1 ; pwm_codeword[7]~input_o $end
$var wire 1 < pwm_codeword[6]~input_o $end
$var wire 1 = pwm_codeword[5]~input_o $end
$var wire 1 > pwm_codeword[4]~input_o $end
$var wire 1 ? pwm_codeword[3]~input_o $end
$var wire 1 @ pwm_codeword[2]~input_o $end
$var wire 1 A pwm_codeword[1]~input_o $end
$var wire 1 B pwm_codeword[0]~input_o $end
$var wire 1 C LessThan0~1_cout $end
$var wire 1 D LessThan0~3_cout $end
$var wire 1 E LessThan0~5_cout $end
$var wire 1 F LessThan0~7_cout $end
$var wire 1 G LessThan0~9_cout $end
$var wire 1 H LessThan0~11_cout $end
$var wire 1 I LessThan0~13_cout $end
$var wire 1 J LessThan0~14_combout $end
$var wire 1 K pwm_out~reg0_q $end
$var wire 1 L count_mod|c_out [7] $end
$var wire 1 M count_mod|c_out [6] $end
$var wire 1 N count_mod|c_out [5] $end
$var wire 1 O count_mod|c_out [4] $end
$var wire 1 P count_mod|c_out [3] $end
$var wire 1 Q count_mod|c_out [2] $end
$var wire 1 R count_mod|c_out [1] $end
$var wire 1 S count_mod|c_out [0] $end
$upscope $end
$upscope $end
$enddefinitions $end
#0
$dumpvars
0!
b11111111 "
0#
0$
1%
x&
1'
1(
1)
0*
0+
0,
1-
0.
0/
00
11
02
03
04
15
06
07
08
19
0:
1;
1<
1=
1>
1?
1@
1A
1B
1C
0D
1E
0F
1G
0H
1I
1J
0K
0S
0R
0Q
0P
0O
0N
0M
0L
$end
#1000
1!
1+
1,
1S
1K
1*
0C
1#
1.
0-
#2000
0!
0+
0,
#3000
1!
1+
1,
1R
0S
1D
1C
1-
0D
#4000
0!
0+
0,
#5000
1!
1+
1,
1S
0C
1/
0.
0-
1D
10
#6000
0!
0+
0,
#7000
1!
1+
1,
1Q
0R
0S
0E
01
0D
0/
1C
00
1-
1E
11
12
10
02
#8000
0!
0+
0,
#9000
1!
1+
1,
1S
0C
1.
0-
#10000
0!
0+
0,
#11000
1!
1+
1,
1R
0S
1D
1C
1-
0E
0D
1E
#12000
0!
0+
0,
#13000
1!
1+
1,
1S
0C
1/
0.
0-
1D
01
00
0E
12
#14000
0!
0+
0,
#15000
1!
1+
1,
1P
0Q
0R
0S
1F
13
1E
11
0D
0/
1C
02
10
1-
0F
03
14
12
00
04
#16000
0!
0+
0,
#17000
1!
1+
1,
1S
0C
1.
0-
#18000
0!
0+
0,
#19000
1!
1+
1,
1R
0S
1D
1C
1-
0D
#20000
0!
0+
0,
#21000
1!
1+
1,
1S
0C
1/
0.
0-
1D
10
#22000
0!
0+
0,
#23000
1!
1+
1,
1Q
0R
0S
0E
01
0D
0/
1C
00
1-
1F
13
1E
11
02
10
0F
03
14
12
04
#24000
0!
0+
0,
#25000
1!
1+
1,
1S
0C
1.
0-
#26000
0!
0+
0,
#27000
1!
1+
1,
1R
0S
1D
1C
1-
0E
0D
1F
1E
0F
#28000
0!
0+
0,
#29000
1!
1+
1,
1S
0C
1/
0.
0-
1D
01
00
0E
13
02
1F
14
#30000
0!
0+
0,
#31000
1!
1+
1,
1O
0P
0Q
0R
0S
0G
05
0F
03
1E
11
0D
0/
1C
04
12
10
1-
1G
15
16
14
02
00
06
#32000
0!
0+
0,
#33000
1!
1+
1,
1S
0C
1.
0-
#34000
0!
0+
0,
#35000
1!
1+
1,
1R
0S
1D
1C
1-
0D
#36000
0!
0+
0,
#37000
1!
1+
1,
1S
0C
1/
0.
0-
1D
10
#38000
0!
0+
0,
#39000
1!
1+
1,
1Q
0R
0S
0E
01
0D
0/
1C
00
1-
1E
11
12
10
02
#40000
0!
0+
0,
#41000
1!
1+
1,
1S
0C
1.
0-
#42000
0!
0+
0,
#43000
1!
1+
1,
1R
0S
1D
1C
1-
0E
0D
1E
#44000
0!
0+
0,
#45000
1!
1+
1,
1S
0C
1/
0.
0-
1D
01
00
0E
12
#46000
0!
0+
0,
#47000
1!
1+
1,
1P
0Q
0R
0S
1F
13
1E
11
0D
0/
1C
02
10
1-
0G
05
0F
03
04
12
00
1G
15
16
14
06
#48000
0!
0+
0,
#49000
1!
1+
1,
1S
0C
1.
0-
#50000
0!
0+
0,
#51000
1!
1+
1,
1R
0S
1D
1C
1-
0D
#52000
0!
0+
0,
#53000
1!
1+
1,
1S
0C
1/
0.
0-
1D
10
#54000
0!
0+
0,
#55000
1!
1+
1,
1Q
0R
0S
0E
01
0D
0/
1C
00
1-
1F
13
1E
11
02
10
0G
05
0F
03
04
12
1G
15
16
14
06
#56000
0!
0+
0,
#57000
1!
1+
1,
1S
0C
1.
0-
#58000
0!
0+
0,
#59000
1!
1+
1,
1R
0S
1D
1C
1-
0E
0D
1F
1E
0G
0F
1G
#60000
0!
0+
0,
#61000
1!
1+
1,
1S
0C
1/
0.
0-
1D
01
00
0E
13
02
1F
05
04
0G
16
#62000
0!
0+
0,
#63000
1!
1+
1,
1N
0O
0P
0Q
0R
0S
1H
17
1G
15
0F
03
1E
11
0D
0/
1C
06
14
12
10
1-
0H
07
18
16
04
02
00
08
#64000
0!
0+
0,
#65000
1!
1+
1,
1S
0C
1.
0-
#66000
0!
0+
0,
#67000
1!
1+
1,
1R
0S
1D
1C
1-
0D
#68000
0!
0+
0,
#69000
1!
1+
1,
1S
0C
1/
0.
0-
1D
10
#70000
0!
0+
0,
#71000
1!
1+
1,
1Q
0R
0S
0E
01
0D
0/
1C
00
1-
1E
11
12
10
02
#72000
0!
0+
0,
#73000
1!
1+
1,
1S
0C
1.
0-
#74000
0!
0+
0,
#75000
1!
1+
1,
1R
0S
1D
1C
1-
0E
0D
1E
#76000
0!
0+
0,
#77000
1!
1+
1,
1S
0C
1/
0.
0-
1D
01
00
0E
12
#78000
0!
0+
0,
#79000
1!
1+
1,
1P
0Q
0R
0S
1F
13
1E
11
0D
0/
1C
02
10
1-
0F
03
14
12
00
04
#80000
0!
0+
0,
#81000
1!
1+
1,
1S
0C
1.
0-
#82000
0!
0+
0,
#83000
1!
1+
1,
1R
0S
1D
1C
1-
0D
#84000
0!
0+
0,
#85000
1!
1+
1,
1S
0C
1/
0.
0-
1D
10
#86000
0!
0+
0,
#87000
1!
1+
1,
1Q
0R
0S
0E
01
0D
0/
1C
00
1-
1F
13
1E
11
02
10
0F
03
14
12
04
#88000
0!
0+
0,
#89000
1!
1+
1,
1S
0C
1.
0-
#90000
0!
0+
0,
#91000
1!
1+
1,
1R
0S
1D
1C
1-
0E
0D
1F
1E
0F
#92000
0!
0+
0,
#93000
1!
1+
1,
1S
0C
1/
0.
0-
1D
01
00
0E
13
02
1F
14
#94000
0!
0+
0,
#95000
1!
1+
1,
1O
0P
0Q
0R
0S
0G
05
0F
03
1E
11
0D
0/
1C
04
12
10
1-
1H
17
1G
15
06
14
02
00
0H
07
18
16
08
#96000
0!
0+
0,
#97000
1!
1+
1,
1S
0C
1.
0-
#98000
0!
0+
0,
#99000
1!
1+
1,
1R
0S
1D
1C
1-
0D
#100000
0!
0+
0,
#101000
1!
1+
1,
1S
0C
1/
0.
0-
1D
10
#102000
0!
0+
0,
#103000
1!
1+
1,
1Q
0R
0S
0E
01
0D
0/
1C
00
1-
1E
11
12
10
02
#104000
0!
0+
0,
#105000
1!
1+
1,
1S
0C
1.
0-
#106000
0!
0+
0,
#107000
1!
1+
1,
1R
0S
1D
1C
1-
0E
0D
1E
#108000
0!
0+
0,
#109000
1!
1+
1,
1S
0C
1/
0.
0-
1D
01
00
0E
12
#110000
0!
0+
0,
#111000
1!
1+
1,
1P
0Q
0R
0S
1F
13
1E
11
0D
0/
1C
02
10
1-
0G
05
0F
03
04
12
00
1H
17
1G
15
06
14
0H
07
18
16
08
#112000
0!
0+
0,
#113000
1!
1+
1,
1S
0C
1.
0-
#114000
0!
0+
0,
#115000
1!
1+
1,
1R
0S
1D
1C
1-
0D
#116000
0!
0+
0,
#117000
1!
1+
1,
1S
0C
1/
0.
0-
1D
10
#118000
0!
0+
0,
#119000
1!
1+
1,
1Q
0R
0S
0E
01
0D
0/
1C
00
1-
1F
13
1E
11
02
10
0G
05
0F
03
04
12
1H
17
1G
15
06
14
0H
07
18
16
08
#120000
0!
0+
0,
#121000
1!
1+
1,
1S
0C
1.
0-
#122000
0!
0+
0,
#123000
1!
1+
1,
1R
0S
1D
1C
1-
0E
0D
1F
1E
0G
0F
1H
1G
0H
#124000
0!
0+
0,
#125000
1!
1+
1,
1S
0C
1/
0.
0-
1D
01
00
0E
13
02
1F
05
04
0G
17
06
1H
18
#126000
0!
0+
0,
#127000
1!
1+
1,
1M
0N
0O
0P
0Q
0R
0S
0I
09
0H
07
1G
15
0F
03
1E
11
0D
0/
1C
08
16
14
12
10
1-
1I
19
1:
18
06
04
02
00
0:
#128000
0!
0+
0,
#129000
1!
1+
1,
1S
0C
1.
0-
#130000
0!
0+
0,
#131000
1!
1+
1,
1R
0S
1D
1C
1-
0D
#132000
0!
0+
0,
#133000
1!
1+
1,
1S
0C
1/
0.
0-
1D
10
#134000
0!
0+
0,
#135000
1!
1+
1,
1Q
0R
0S
0E
01
0D
0/
1C
00
1-
1E
11
12
10
02
#136000
0!
0+
0,
#137000
1!
1+
1,
1S
0C
1.
0-
#138000
0!
0+
0,
#139000
1!
1+
1,
1R
0S
1D
1C
1-
0E
0D
1E
#140000
0!
0+
0,
#141000
1!
1+
1,
1S
0C
1/
0.
0-
1D
01
00
0E
12
#142000
0!
0+
0,
#143000
1!
1+
1,
1P
0Q
0R
0S
1F
13
1E
11
0D
0/
1C
02
10
1-
0F
03
14
12
00
04
#144000
0!
0+
0,
#145000
1!
1+
1,
1S
0C
1.
0-
#146000
0!
0+
0,
#147000
1!
1+
1,
1R
0S
1D
1C
1-
0D
#148000
0!
0+
0,
#149000
1!
1+
1,
1S
0C
1/
0.
0-
1D
10
#150000
0!
0+
0,
#151000
1!
1+
1,
1Q
0R
0S
0E
01
0D
0/
1C
00
1-
1F
13
1E
11
02
10
0F
03
14
12
04
#152000
0!
0+
0,
#153000
1!
1+
1,
1S
0C
1.
0-
#154000
0!
0+
0,
#155000
1!
1+
1,
1R
0S
1D
1C
1-
0E
0D
1F
1E
0F
#156000
0!
0+
0,
#157000
1!
1+
1,
1S
0C
1/
0.
0-
1D
01
00
0E
13
02
1F
14
#158000
0!
0+
0,
#159000
1!
1+
1,
1O
0P
0Q
0R
0S
0G
05
0F
03
1E
11
0D
0/
1C
04
12
10
1-
1G
15
16
14
02
00
06
#160000
0!
0+
0,
#161000
1!
1+
1,
1S
0C
1.
0-
#162000
0!
0+
0,
#163000
1!
1+
1,
1R
0S
1D
1C
1-
0D
#164000
0!
0+
0,
#165000
1!
1+
1,
1S
0C
1/
0.
0-
1D
10
#166000
0!
0+
0,
#167000
1!
1+
1,
1Q
0R
0S
0E
01
0D
0/
1C
00
1-
1E
11
12
10
02
#168000
0!
0+
0,
#169000
1!
1+
1,
1S
0C
1.
0-
#170000
0!
0+
0,
#171000
1!
1+
1,
1R
0S
1D
1C
1-
0E
0D
1E
#172000
0!
0+
0,
#173000
1!
1+
1,
1S
0C
1/
0.
0-
1D
01
00
0E
12
#174000
0!
0+
0,
#175000
1!
1+
1,
1P
0Q
0R
0S
1F
13
1E
11
0D
0/
1C
02
10
1-
0G
05
0F
03
04
12
00
1G
15
16
14
06
#176000
0!
0+
0,
#177000
1!
1+
1,
1S
0C
1.
0-
#178000
0!
0+
0,
#179000
1!
1+
1,
1R
0S
1D
1C
1-
0D
#180000
0!
0+
0,
#181000
1!
1+
1,
1S
0C
1/
0.
0-
1D
10
#182000
0!
0+
0,
#183000
1!
1+
1,
1Q
0R
0S
0E
01
0D
0/
1C
00
1-
1F
13
1E
11
02
10
0G
05
0F
03
04
12
1G
15
16
14
06
#184000
0!
0+
0,
#185000
1!
1+
1,
1S
0C
1.
0-
#186000
0!
0+
0,
#187000
1!
1+
1,
1R
0S
1D
1C
1-
0E
0D
1F
1E
0G
0F
1G
#188000
0!
0+
0,
#189000
1!
1+
1,
1S
0C
1/
0.
0-
1D
01
00
0E
13
02
1F
05
04
0G
16
#190000
0!
0+
0,
#191000
1!
1+
1,
1N
0O
0P
0Q
0R
0S
1H
17
1G
15
0F
03
1E
11
0D
0/
1C
06
14
12
10
1-
0I
09
0H
07
08
16
04
02
00
1I
19
1:
18
0:
#192000
0!
0+
0,
#193000
1!
1+
1,
1S
0C
1.
0-
#194000
0!
0+
0,
#195000
1!
1+
1,
1R
0S
1D
1C
1-
0D
#196000
0!
0+
0,
#197000
1!
1+
1,
1S
0C
1/
0.
0-
1D
10
#198000
0!
0+
0,
#199000
1!
1+
1,
1Q
0R
0S
0E
01
0D
0/
1C
00
1-
1E
11
12
10
02
#200000
0!
0+
0,
#201000
1!
1+
1,
1S
0C
1.
0-
#202000
0!
0+
0,
#203000
1!
1+
1,
1R
0S
1D
1C
1-
0E
0D
1E
#204000
0!
0+
0,
#205000
1!
1+
1,
1S
0C
1/
0.
0-
1D
01
00
0E
12
#206000
0!
0+
0,
#207000
1!
1+
1,
1P
0Q
0R
0S
1F
13
1E
11
0D
0/
1C
02
10
1-
0F
03
14
12
00
04
#208000
0!
0+
0,
#209000
1!
1+
1,
1S
0C
1.
0-
#210000
0!
0+
0,
#211000
1!
1+
1,
1R
0S
1D
1C
1-
0D
#212000
0!
0+
0,
#213000
1!
1+
1,
1S
0C
1/
0.
0-
1D
10
#214000
0!
0+
0,
#215000
1!
1+
1,
1Q
0R
0S
0E
01
0D
0/
1C
00
1-
1F
13
1E
11
02
10
0F
03
14
12
04
#216000
0!
0+
0,
#217000
1!
1+
1,
1S
0C
1.
0-
#218000
0!
0+
0,
#219000
1!
1+
1,
1R
0S
1D
1C
1-
0E
0D
1F
1E
0F
#220000
0!
0+
0,
#221000
1!
1+
1,
1S
0C
1/
0.
0-
1D
01
00
0E
13
02
1F
14
#222000
0!
0+
0,
#223000
1!
1+
1,
1O
0P
0Q
0R
0S
0G
05
0F
03
1E
11
0D
0/
1C
04
12
10
1-
1H
17
1G
15
06
14
02
00
0I
09
0H
07
08
16
1I
19
1:
18
0:
#224000
0!
0+
0,
#225000
1!
1+
1,
1S
0C
1.
0-
#226000
0!
0+
0,
#227000
1!
1+
1,
1R
0S
1D
1C
1-
0D
#228000
0!
0+
0,
#229000
1!
1+
1,
1S
0C
1/
0.
0-
1D
10
#230000
0!
0+
0,
#231000
1!
1+
1,
1Q
0R
0S
0E
01
0D
0/
1C
00
1-
1E
11
12
10
02
#232000
0!
0+
0,
#233000
1!
1+
1,
1S
0C
1.
0-
#234000
0!
0+
0,
#235000
1!
1+
1,
1R
0S
1D
1C
1-
0E
0D
1E
#236000
0!
0+
0,
#237000
1!
1+
1,
1S
0C
1/
0.
0-
1D
01
00
0E
12
#238000
0!
0+
0,
#239000
1!
1+
1,
1P
0Q
0R
0S
1F
13
1E
11
0D
0/
1C
02
10
1-
0G
05
0F
03
04
12
00
1H
17
1G
15
06
14
0I
09
0H
07
08
16
1I
19
1:
18
0:
#240000
0!
0+
0,
#241000
1!
1+
1,
1S
0C
1.
0-
#242000
0!
0+
0,
#243000
1!
1+
1,
1R
0S
1D
1C
1-
0D
#244000
0!
0+
0,
#245000
1!
1+
1,
1S
0C
1/
0.
0-
1D
10
#246000
0!
0+
0,
#247000
1!
1+
1,
1Q
0R
0S
0E
01
0D
0/
1C
00
1-
1F
13
1E
11
02
10
0G
05
0F
03
04
12
1H
17
1G
15
06
14
0I
09
0H
07
08
16
1I
19
1:
18
0:
#248000
0!
0+
0,
#249000
1!
1+
1,
1S
0C
1.
0-
#250000
0!
0+
0,
#251000
1!
1+
1,
1R
0S
1D
1C
1-
0E
0D
1F
1E
0G
0F
1H
1G
0I
0H
1I
#252000
0!
0+
0,
#253000
1!
1+
1,
1S
0C
1/
0.
0-
1D
01
00
0E
13
02
1F
05
04
0G
17
06
1H
09
08
0I
1:
#254000
0!
0+
0,
#255000
1!
1+
1,
1L
0M
0N
0O
0P
0Q
0R
0S
1I
19
0H
07
1G
15
0F
03
1E
11
0D
0/
1C
0J
0:
18
16
14
12
10
1-
1J
1:
08
06
04
02
00
#256000
0!
0+
0,
#257000
1!
1+
1,
1S
0C
1.
0-
#258000
0!
0+
0,
#259000
1!
1+
1,
1R
0S
1D
1C
1-
0D
#260000
0!
0+
0,
#261000
1!
1+
1,
1S
0C
1/
0.
0-
1D
10
#262000
0!
0+
0,
#263000
1!
1+
1,
1Q
0R
0S
0E
01
0D
0/
1C
00
1-
1E
11
12
10
02
#264000
0!
0+
0,
#265000
1!
1+
1,
1S
0C
1.
0-
#266000
0!
0+
0,
#267000
1!
1+
1,
1R
0S
1D
1C
1-
0E
0D
1E
#268000
0!
0+
0,
#269000
1!
1+
1,
1S
0C
1/
0.
0-
1D
01
00
0E
12
#270000
0!
0+
0,
#271000
1!
1+
1,
1P
0Q
0R
0S
1F
13
1E
11
0D
0/
1C
02
10
1-
0F
03
14
12
00
04
#272000
0!
0+
0,
#273000
1!
1+
1,
1S
0C
1.
0-
#274000
0!
0+
0,
#275000
1!
1+
1,
1R
0S
1D
1C
1-
0D
#276000
0!
0+
0,
#277000
1!
1+
1,
1S
0C
1/
0.
0-
1D
10
#278000
0!
0+
0,
#279000
1!
1+
1,
1Q
0R
0S
0E
01
0D
0/
1C
00
1-
1F
13
1E
11
02
10
0F
03
14
12
04
#280000
0!
0+
0,
#281000
1!
1+
1,
1S
0C
1.
0-
#282000
0!
0+
0,
#283000
1!
1+
1,
1R
0S
1D
1C
1-
0E
0D
1F
1E
0F
#284000
0!
0+
0,
#285000
1!
1+
1,
1S
0C
1/
0.
0-
1D
01
00
0E
13
02
1F
14
#286000
0!
0+
0,
#287000
1!
1+
1,
1O
0P
0Q
0R
0S
0G
05
0F
03
1E
11
0D
0/
1C
04
12
10
1-
1G
15
16
14
02
00
06
#288000
0!
0+
0,
#289000
1!
1+
1,
1S
0C
1.
0-
#290000
0!
0+
0,
#291000
1!
1+
1,
1R
0S
1D
1C
1-
0D
#292000
0!
0+
0,
#293000
1!
1+
1,
1S
0C
1/
0.
0-
1D
10
#294000
0!
0+
0,
#295000
1!
1+
1,
1Q
0R
0S
0E
01
0D
0/
1C
00
1-
1E
11
12
10
02
#296000
0!
0+
0,
#297000
1!
1+
1,
1S
0C
1.
0-
#298000
0!
0+
0,
#299000
1!
1+
1,
1R
0S
1D
1C
1-
0E
0D
1E
#300000
0!
0+
0,
#301000
1!
1+
1,
1S
0C
1/
0.
0-
1D
01
00
0E
12
#302000
0!
0+
0,
#303000
1!
1+
1,
1P
0Q
0R
0S
1F
13
1E
11
0D
0/
1C
02
10
1-
0G
05
0F
03
04
12
00
1G
15
16
14
06
#304000
0!
0+
0,
#305000
1!
1+
1,
1S
0C
1.
0-
#306000
0!
0+
0,
#307000
1!
1+
1,
1R
0S
1D
1C
1-
0D
#308000
0!
0+
0,
#309000
1!
1+
1,
1S
0C
1/
0.
0-
1D
10
#310000
0!
0+
0,
#311000
1!
1+
1,
1Q
0R
0S
0E
01
0D
0/
1C
00
1-
1F
13
1E
11
02
10
0G
05
0F
03
04
12
1G
15
16
14
06
#312000
0!
0+
0,
#313000
1!
1+
1,
1S
0C
1.
0-
#314000
0!
0+
0,
#315000
1!
1+
1,
1R
0S
1D
1C
1-
0E
0D
1F
1E
0G
0F
1G
#316000
0!
0+
0,
#317000
1!
1+
1,
1S
0C
1/
0.
0-
1D
01
00
0E
13
02
1F
05
04
0G
16
#318000
0!
0+
0,
#319000
1!
1+
1,
1N
0O
0P
0Q
0R
0S
1H
17
1G
15
0F
03
1E
11
0D
0/
1C
06
14
12
10
1-
0H
07
18
16
04
02
00
08
#320000
0!
0+
0,
#321000
1!
1+
1,
1S
0C
1.
0-
#322000
0!
0+
0,
#323000
1!
1+
1,
1R
0S
1D
1C
1-
0D
#324000
0!
0+
0,
#325000
1!
1+
1,
1S
0C
1/
0.
0-
1D
10
#326000
0!
0+
0,
#327000
1!
1+
1,
1Q
0R
0S
0E
01
0D
0/
1C
00
1-
1E
11
12
10
02
#328000
0!
0+
0,
#329000
1!
1+
1,
1S
0C
1.
0-
#330000
0!
0+
0,
#331000
1!
1+
1,
1R
0S
1D
1C
1-
0E
0D
1E
#332000
0!
0+
0,
#333000
1!
1+
1,
1S
0C
1/
0.
0-
1D
01
00
0E
12
#334000
0!
0+
0,
#335000
1!
1+
1,
1P
0Q
0R
0S
1F
13
1E
11
0D
0/
1C
02
10
1-
0F
03
14
12
00
04
#336000
0!
0+
0,
#337000
1!
1+
1,
1S
0C
1.
0-
#338000
0!
0+
0,
#339000
1!
1+
1,
1R
0S
1D
1C
1-
0D
#340000
0!
0+
0,
#341000
1!
1+
1,
1S
0C
1/
0.
0-
1D
10
#342000
0!
0+
0,
#343000
1!
1+
1,
1Q
0R
0S
0E
01
0D
0/
1C
00
1-
1F
13
1E
11
02
10
0F
03
14
12
04
#344000
0!
0+
0,
#345000
1!
1+
1,
1S
0C
1.
0-
#346000
0!
0+
0,
#347000
1!
1+
1,
1R
0S
1D
1C
1-
0E
0D
1F
1E
0F
#348000
0!
0+
0,
#349000
1!
1+
1,
1S
0C
1/
0.
0-
1D
01
00
0E
13
02
1F
14
#350000
0!
0+
0,
#351000
1!
1+
1,
1O
0P
0Q
0R
0S
0G
05
0F
03
1E
11
0D
0/
1C
04
12
10
1-
1H
17
1G
15
06
14
02
00
0H
07
18
16
08
#352000
0!
0+
0,
#353000
1!
1+
1,
1S
0C
1.
0-
#354000
0!
0+
0,
#355000
1!
1+
1,
1R
0S
1D
1C
1-
0D
#356000
0!
0+
0,
#357000
1!
1+
1,
1S
0C
1/
0.
0-
1D
10
#358000
0!
0+
0,
#359000
1!
1+
1,
1Q
0R
0S
0E
01
0D
0/
1C
00
1-
1E
11
12
10
02
#360000
0!
0+
0,
#361000
1!
1+
1,
1S
0C
1.
0-
#362000
0!
0+
0,
#363000
1!
1+
1,
1R
0S
1D
1C
1-
0E
0D
1E
#364000
0!
0+
0,
#365000
1!
1+
1,
1S
0C
1/
0.
0-
1D
01
00
0E
12
#366000
0!
0+
0,
#367000
1!
1+
1,
1P
0Q
0R
0S
1F
13
1E
11
0D
0/
1C
02
10
1-
0G
05
0F
03
04
12
00
1H
17
1G
15
06
14
0H
07
18
16
08
#368000
0!
0+
0,
#369000
1!
1+
1,
1S
0C
1.
0-
#370000
0!
0+
0,
#371000
1!
1+
1,
1R
0S
1D
1C
1-
0D
#372000
0!
0+
0,
#373000
1!
1+
1,
1S
0C
1/
0.
0-
1D
10
#374000
0!
0+
0,
#375000
1!
1+
1,
1Q
0R
0S
0E
01
0D
0/
1C
00
1-
1F
13
1E
11
02
10
0G
05
0F
03
04
12
1H
17
1G
15
06
14
0H
07
18
16
08
#376000
0!
0+
0,
#377000
1!
1+
1,
1S
0C
1.
0-
#378000
0!
0+
0,
#379000
1!
1+
1,
1R
0S
1D
1C
1-
0E
0D
1F
1E
0G
0F
1H
1G
0H
#380000
0!
0+
0,
#381000
1!
1+
1,
1S
0C
1/
0.
0-
1D
01
00
0E
13
02
1F
05
04
0G
17
06
1H
18
#382000
0!
0+
0,
#383000
1!
1+
1,
1M
0N
0O
0P
0Q
0R
0S
0I
09
0H
07
1G
15
0F
03
1E
11
0D
0/
1C
08
16
14
12
10
1-
1I
19
0J
0:
18
06
04
02
00
1J
1:
#384000
0!
0+
0,
#385000
1!
1+
1,
1S
0C
1.
0-
#386000
0!
0+
0,
#387000
1!
1+
1,
1R
0S
1D
1C
1-
0D
#388000
0!
0+
0,
#389000
1!
1+
1,
1S
0C
1/
0.
0-
1D
10
#390000
0!
0+
0,
#391000
1!
1+
1,
1Q
0R
0S
0E
01
0D
0/
1C
00
1-
1E
11
12
10
02
#392000
0!
0+
0,
#393000
1!
1+
1,
1S
0C
1.
0-
#394000
0!
0+
0,
#395000
1!
1+
1,
1R
0S
1D
1C
1-
0E
0D
1E
#396000
0!
0+
0,
#397000
1!
1+
1,
1S
0C
1/
0.
0-
1D
01
00
0E
12
#398000
0!
0+
0,
#399000
1!
1+
1,
1P
0Q
0R
0S
1F
13
1E
11
0D
0/
1C
02
10
1-
0F
03
14
12
00
04
#400000
0!
0+
0,
#401000
1!
1+
1,
1S
0C
1.
0-
#402000
0!
0+
0,
#403000
1!
1+
1,
1R
0S
1D
1C
1-
0D
#404000
0!
0+
0,
#405000
1!
1+
1,
1S
0C
1/
0.
0-
1D
10
#406000
0!
0+
0,
#407000
1!
1+
1,
1Q
0R
0S
0E
01
0D
0/
1C
00
1-
1F
13
1E
11
02
10
0F
03
14
12
04
#408000
0!
0+
0,
#409000
1!
1+
1,
1S
0C
1.
0-
#410000
0!
0+
0,
#411000
1!
1+
1,
1R
0S
1D
1C
1-
0E
0D
1F
1E
0F
#412000
0!
0+
0,
#413000
1!
1+
1,
1S
0C
1/
0.
0-
1D
01
00
0E
13
02
1F
14
#414000
0!
0+
0,
#415000
1!
1+
1,
1O
0P
0Q
0R
0S
0G
05
0F
03
1E
11
0D
0/
1C
04
12
10
1-
1G
15
16
14
02
00
06
#416000
0!
0+
0,
#417000
1!
1+
1,
1S
0C
1.
0-
#418000
0!
0+
0,
#419000
1!
1+
1,
1R
0S
1D
1C
1-
0D
#420000
0!
0+
0,
#421000
1!
1+
1,
1S
0C
1/
0.
0-
1D
10
#422000
0!
0+
0,
#423000
1!
1+
1,
1Q
0R
0S
0E
01
0D
0/
1C
00
1-
1E
11
12
10
02
#424000
0!
0+
0,
#425000
1!
1+
1,
1S
0C
1.
0-
#426000
0!
0+
0,
#427000
1!
1+
1,
1R
0S
1D
1C
1-
0E
0D
1E
#428000
0!
0+
0,
#429000
1!
1+
1,
1S
0C
1/
0.
0-
1D
01
00
0E
12
#430000
0!
0+
0,
#431000
1!
1+
1,
1P
0Q
0R
0S
1F
13
1E
11
0D
0/
1C
02
10
1-
0G
05
0F
03
04
12
00
1G
15
16
14
06
#432000
0!
0+
0,
#433000
1!
1+
1,
1S
0C
1.
0-
#434000
0!
0+
0,
#435000
1!
1+
1,
1R
0S
1D
1C
1-
0D
#436000
0!
0+
0,
#437000
1!
1+
1,
1S
0C
1/
0.
0-
1D
10
#438000
0!
0+
0,
#439000
1!
1+
1,
1Q
0R
0S
0E
01
0D
0/
1C
00
1-
1F
13
1E
11
02
10
0G
05
0F
03
04
12
1G
15
16
14
06
#440000
0!
0+
0,
#441000
1!
1+
1,
1S
0C
1.
0-
#442000
0!
0+
0,
#443000
1!
1+
1,
1R
0S
1D
1C
1-
0E
0D
1F
1E
0G
0F
1G
#444000
0!
0+
0,
#445000
1!
1+
1,
1S
0C
1/
0.
0-
1D
01
00
0E
13
02
1F
05
04
0G
16
#446000
0!
0+
0,
#447000
1!
1+
1,
1N
0O
0P
0Q
0R
0S
1H
17
1G
15
0F
03
1E
11
0D
0/
1C
06
14
12
10
1-
0I
09
0H
07
08
16
04
02
00
1I
19
0J
0:
18
1J
1:
#448000
0!
0+
0,
#449000
1!
1+
1,
1S
0C
1.
0-
#450000
0!
0+
0,
#451000
1!
1+
1,
1R
0S
1D
1C
1-
0D
#452000
0!
0+
0,
#453000
1!
1+
1,
1S
0C
1/
0.
0-
1D
10
#454000
0!
0+
0,
#455000
1!
1+
1,
1Q
0R
0S
0E
01
0D
0/
1C
00
1-
1E
11
12
10
02
#456000
0!
0+
0,
#457000
1!
1+
1,
1S
0C
1.
0-
#458000
0!
0+
0,
#459000
1!
1+
1,
1R
0S
1D
1C
1-
0E
0D
1E
#460000
0!
0+
0,
#461000
1!
1+
1,
1S
0C
1/
0.
0-
1D
01
00
0E
12
#462000
0!
0+
0,
#463000
1!
1+
1,
1P
0Q
0R
0S
1F
13
1E
11
0D
0/
1C
02
10
1-
0F
03
14
12
00
04
#464000
0!
0+
0,
#465000
1!
1+
1,
1S
0C
1.
0-
#466000
0!
0+
0,
#467000
1!
1+
1,
1R
0S
1D
1C
1-
0D
#468000
0!
0+
0,
#469000
1!
1+
1,
1S
0C
1/
0.
0-
1D
10
#470000
0!
0+
0,
#471000
1!
1+
1,
1Q
0R
0S
0E
01
0D
0/
1C
00
1-
1F
13
1E
11
02
10
0F
03
14
12
04
#472000
0!
0+
0,
#473000
1!
1+
1,
1S
0C
1.
0-
#474000
0!
0+
0,
#475000
1!
1+
1,
1R
0S
1D
1C
1-
0E
0D
1F
1E
0F
